[gd_scene load_steps=2 format=3 uid="uid://b16sc40f8y45t"]

[ext_resource type="PackedScene" uid="uid://biwn5w16q3dku" path="res://experiments/legs/rbleg.tscn" id="1_g0nsf"]

[node name="leggo" type="Marker3D"]

[node name="HingeJoint3D" type="HingeJoint3D" parent="."]
node_a = NodePath("../one_pivot/one")
node_b = NodePath("../one_pivot/two_pivot/two")

[node name="PinJoint3D" type="PinJoint3D" parent="."]
transform = Transform3D(1, 0, 0, 0, 1, 0, 0, 0, 1, 0, 2, 0)
node_a = NodePath("../one_pivot/one")

[node name="one_pivot" type="Marker3D" parent="."]
transform = Transform3D(1, 0, 0, 0, 0.482228, -0.876046, 0, 0.876046, 0.482228, 0, 1.62766, 0)

[node name="one" parent="one_pivot" instance=ExtResource("1_g0nsf")]
transform = Transform3D(1, 0, 0, 0, 1, 0, 0, 0, 1, 0, -0.682999, 0)

[node name="two_pivot" type="Marker3D" parent="one_pivot"]
transform = Transform3D(1, 0, 0, 0, 0.995464, 0.0951336, 0, -0.0951336, 0.995464, 0, -2.09321, 0.030115)

[node name="two" parent="one_pivot/two_pivot" instance=ExtResource("1_g0nsf")]
transform = Transform3D(1, 0, 0, 0, 1, 0, 0, 0, 1, 0, -0.704034, 0)
mass = 2.0
