[gd_resource type="Resource" script_class="rwBoardDataBasePrivate" load_steps=10 format=3 uid="uid://iosshtjhvmv6"]

[ext_resource type="Resource" uid="uid://83jp2o1nqjc4" path="res://fish_world/fish_ai/plans/resources/EatMorselPlan_plan_7251498551.tres" id="1_2q213"]
[ext_resource type="Script" path="res://addons/resource_wrangler/src/main/board_data.gd" id="2_6qlu8"]
[ext_resource type="Resource" uid="uid://j1a8kfcl5iur" path="res://fish_world/fish_ai/plans/resources/EatVegetationPlan_plan_2ce15fd56b.tres" id="2_oky7i"]
[ext_resource type="Resource" uid="uid://b6lp0mn0ltisy" path="res://fish_world/fish_ai/plans/resources/AvoidHarmPlan_plan_57e6cb5523.tres" id="4_wqrs7"]
[ext_resource type="Resource" uid="uid://cj2xbel3peimn" path="res://fish_world/fish_ai/plans/resources/RestHangDownPlan_plan_57f43615f9.tres" id="5_g8ldm"]
[ext_resource type="Resource" uid="uid://cyekviupisv8r" path="res://fish_world/fish_ai/plans/resources/PetalFishPlans_plans_de10d663b3.tres" id="5_oouja"]
[ext_resource type="Resource" uid="uid://seeu7muwmgib" path="res://fish_world/fish_ai/plans/resources/StaySecurePlan_plan_da6723ccea.tres" id="6_8ge7q"]
[ext_resource type="Resource" uid="uid://w0ady3elqjcs" path="res://fish_world/fish_ai/plans/resources/RestCirclePlan_plan_b72015f186.tres" id="7_v0ocr"]
[ext_resource type="Resource" uid="uid://c28n44n6lddvt" path="res://fish_world/fish_ai/plans/resources/RestHidePlan_plan_5d751ab6dc.tres" id="8_sv5we"]

[resource]
script = ExtResource("2_6qlu8")
board_zoom = 0.632687
scroll_offset = Vector2(13.4893, 8.25223)
nodes_data = {
"01a2af1cce": {
"_comment_text": "",
"_details_visible": false,
"_updown": false,
"id": &"01a2af1cce",
"position_offset": Vector2(-460, 0),
"resource": ExtResource("4_wqrs7"),
"resource_class_name": "AvoidHarmPlan"
},
"334255b18a": {
"_comment_text": "",
"_details_visible": false,
"_updown": false,
"id": &"334255b18a",
"position_offset": Vector2(-20, 120),
"resource": ExtResource("5_oouja"),
"resource_class_name": "PetalFishPlans"
},
"4d7df2a75c": {
"_comment_text": "",
"_details_visible": false,
"_updown": false,
"id": &"4d7df2a75c",
"position_offset": Vector2(-460, 300),
"resource": ExtResource("1_2q213"),
"resource_class_name": "EatMorselPlan"
},
"5d751ab6dc": {
"_comment_text": "",
"_details_visible": false,
"_updown": false,
"id": &"5d751ab6dc",
"position_offset": Vector2(-820, 680),
"resource": ExtResource("8_sv5we"),
"resource_class_name": "RestHidePlan"
},
"5e5bcb4bae": {
"_comment_text": "",
"_details_visible": false,
"_updown": false,
"id": &"5e5bcb4bae",
"position_offset": Vector2(-480, 140),
"resource": ExtResource("6_8ge7q"),
"resource_class_name": "StaySecurePlan"
},
"71a02bb5f5": {
"_comment_text": "",
"_details_visible": false,
"_updown": false,
"id": &"71a02bb5f5",
"position_offset": Vector2(-800, 820),
"resource": ExtResource("5_g8ldm"),
"resource_class_name": "RestHangDownPlan"
},
"7d5b300ee2": {
"_comment_text": "",
"_details_visible": false,
"_updown": false,
"id": &"7d5b300ee2",
"position_offset": Vector2(-500, 480),
"resource": ExtResource("2_oky7i"),
"resource_class_name": "EatVegetationPlan"
},
"b72015f186": {
"_comment_text": "",
"_details_visible": false,
"_updown": false,
"id": &"b72015f186",
"position_offset": Vector2(-880, 540),
"resource": ExtResource("7_v0ocr"),
"resource_class_name": "RestCirclePlan"
}
}
connections = [{
"from": &"01a2af1cce",
"from_port": 0,
"to": &"334255b18a",
"to_port": 2
}, {
"from": &"4d7df2a75c",
"from_port": 0,
"to": &"334255b18a",
"to_port": 4
}, {
"from": &"7d5b300ee2",
"from_port": 0,
"to": &"334255b18a",
"to_port": 4
}, {
"from": &"5e5bcb4bae",
"from_port": 0,
"to": &"334255b18a",
"to_port": 3
}, {
"from": &"71a02bb5f5",
"from_port": 0,
"to": &"334255b18a",
"to_port": 5
}]
