[gd_scene load_steps=13 format=3 uid="uid://dcexvbw031ejy"]

[ext_resource type="Script" path="res://addons/arrow3d/arrow_3d.gd" id="1_3hpqq"]

[sub_resource type="ProceduralSkyMaterial" id="ProceduralSkyMaterial_p30wk"]
sky_horizon_color = Color(0.64625, 0.65575, 0.67075, 1)
ground_horizon_color = Color(0.64625, 0.65575, 0.67075, 1)

[sub_resource type="Sky" id="Sky_yvrgc"]
sky_material = SubResource("ProceduralSkyMaterial_p30wk")

[sub_resource type="Environment" id="Environment_piapr"]
background_mode = 2
sky = SubResource("Sky_yvrgc")
tonemap_mode = 2
glow_enabled = true

[sub_resource type="BoxMesh" id="BoxMesh_asvn0"]
size = Vector3(50, 0.1, 50)

[sub_resource type="ConcavePolygonShape3D" id="ConcavePolygonShape3D_a5o78"]
data = PackedVector3Array(-25, 0.05, 25, 25, 0.05, 25, -25, -0.05, 25, 25, 0.05, 25, 25, -0.05, 25, -25, -0.05, 25, 25, 0.05, -25, -25, 0.05, -25, 25, -0.05, -25, -25, 0.05, -25, -25, -0.05, -25, 25, -0.05, -25, 25, 0.05, 25, 25, 0.05, -25, 25, -0.05, 25, 25, 0.05, -25, 25, -0.05, -25, 25, -0.05, 25, -25, 0.05, -25, -25, 0.05, 25, -25, -0.05, -25, -25, 0.05, 25, -25, -0.05, 25, -25, -0.05, -25, 25, 0.05, 25, -25, 0.05, 25, 25, 0.05, -25, -25, 0.05, 25, -25, 0.05, -25, 25, 0.05, -25, -25, -0.05, 25, 25, -0.05, 25, -25, -0.05, -25, 25, -0.05, 25, 25, -0.05, -25, -25, -0.05, -25)

[sub_resource type="StandardMaterial3D" id="StandardMaterial3D_e03em"]
cull_mode = 2

[sub_resource type="QuadMesh" id="QuadMesh_wglk5"]
material = SubResource("StandardMaterial3D_e03em")
size = Vector2(5, 5)
subdivide_width = 5
subdivide_depth = 5

[sub_resource type="CylinderMesh" id="CylinderMesh_3ipwx"]
bottom_radius = 0.48
height = 5.0

[sub_resource type="ConcavePolygonShape3D" id="ConcavePolygonShape3D_g066w"]
data = PackedVector3Array(0, 2.5, 0.5, 0.049, 2.5, 0.4976, 0, 1.5, 0.496, 0.049, 2.5, 0.4976, 0.0486, 1.5, 0.4936, 0, 1.5, 0.496, 0.049, 2.5, 0.4976, 0.0975, 2.5, 0.4904, 0.0486, 1.5, 0.4936, 0.0975, 2.5, 0.4904, 0.0968, 1.5, 0.4865, 0.0486, 1.5, 0.4936, 0.0975, 2.5, 0.4904, 0.1451, 2.5, 0.4785, 0.0968, 1.5, 0.4865, 0.1451, 2.5, 0.4785, 0.144, 1.5, 0.4746, 0.0968, 1.5, 0.4865, 0.1451, 2.5, 0.4785, 0.1913, 2.5, 0.4619, 0.144, 1.5, 0.4746, 0.1913, 2.5, 0.4619, 0.1898, 1.5, 0.4582, 0.144, 1.5, 0.4746, 0.1913, 2.5, 0.4619, 0.2357, 2.5, 0.441, 0.1898, 1.5, 0.4582, 0.2357, 2.5, 0.441, 0.2338, 1.5, 0.4374, 0.1898, 1.5, 0.4582, 0.2357, 2.5, 0.441, 0.2778, 2.5, 0.4157, 0.2338, 1.5, 0.4374, 0.2778, 2.5, 0.4157, 0.2756, 1.5, 0.4124, 0.2338, 1.5, 0.4374, 0.2778, 2.5, 0.4157, 0.3172, 2.5, 0.3865, 0.2756, 1.5, 0.4124, 0.3172, 2.5, 0.3865, 0.3147, 1.5, 0.3834, 0.2756, 1.5, 0.4124, 0.3172, 2.5, 0.3865, 0.3536, 2.5, 0.3536, 0.3147, 1.5, 0.3834, 0.3536, 2.5, 0.3536, 0.3507, 1.5, 0.3507, 0.3147, 1.5, 0.3834, 0.3536, 2.5, 0.3536, 0.3865, 2.5, 0.3172, 0.3507, 1.5, 0.3507, 0.3865, 2.5, 0.3172, 0.3834, 1.5, 0.3147, 0.3507, 1.5, 0.3507, 0.3865, 2.5, 0.3172, 0.4157, 2.5, 0.2778, 0.3834, 1.5, 0.3147, 0.4157, 2.5, 0.2778, 0.4124, 1.5, 0.2756, 0.3834, 1.5, 0.3147, 0.4157, 2.5, 0.2778, 0.441, 2.5, 0.2357, 0.4124, 1.5, 0.2756, 0.441, 2.5, 0.2357, 0.4374, 1.5, 0.2338, 0.4124, 1.5, 0.2756, 0.441, 2.5, 0.2357, 0.4619, 2.5, 0.1913, 0.4374, 1.5, 0.2338, 0.4619, 2.5, 0.1913, 0.4582, 1.5, 0.1898, 0.4374, 1.5, 0.2338, 0.4619, 2.5, 0.1913, 0.4785, 2.5, 0.1451, 0.4582, 1.5, 0.1898, 0.4785, 2.5, 0.1451, 0.4746, 1.5, 0.144, 0.4582, 1.5, 0.1898, 0.4785, 2.5, 0.1451, 0.4904, 2.5, 0.0975, 0.4746, 1.5, 0.144, 0.4904, 2.5, 0.0975, 0.4865, 1.5, 0.0968, 0.4746, 1.5, 0.144, 0.4904, 2.5, 0.0975, 0.4976, 2.5, 0.049, 0.4865, 1.5, 0.0968, 0.4976, 2.5, 0.049, 0.4936, 1.5, 0.0486, 0.4865, 1.5, 0.0968, 0.4976, 2.5, 0.049, 0.5, 2.5, 0, 0.4936, 1.5, 0.0486, 0.5, 2.5, 0, 0.496, 1.5, 0, 0.4936, 1.5, 0.0486, 0.5, 2.5, 0, 0.4976, 2.5, -0.049, 0.496, 1.5, 0, 0.4976, 2.5, -0.049, 0.4936, 1.5, -0.0486, 0.496, 1.5, 0, 0.4976, 2.5, -0.049, 0.4904, 2.5, -0.0975, 0.4936, 1.5, -0.0486, 0.4904, 2.5, -0.0975, 0.4865, 1.5, -0.0968, 0.4936, 1.5, -0.0486, 0.4904, 2.5, -0.0975, 0.4785, 2.5, -0.1451, 0.4865, 1.5, -0.0968, 0.4785, 2.5, -0.1451, 0.4746, 1.5, -0.144, 0.4865, 1.5, -0.0968, 0.4785, 2.5, -0.1451, 0.4619, 2.5, -0.1913, 0.4746, 1.5, -0.144, 0.4619, 2.5, -0.1913, 0.4582, 1.5, -0.1898, 0.4746, 1.5, -0.144, 0.4619, 2.5, -0.1913, 0.441, 2.5, -0.2357, 0.4582, 1.5, -0.1898, 0.441, 2.5, -0.2357, 0.4374, 1.5, -0.2338, 0.4582, 1.5, -0.1898, 0.441, 2.5, -0.2357, 0.4157, 2.5, -0.2778, 0.4374, 1.5, -0.2338, 0.4157, 2.5, -0.2778, 0.4124, 1.5, -0.2756, 0.4374, 1.5, -0.2338, 0.4157, 2.5, -0.2778, 0.3865, 2.5, -0.3172, 0.4124, 1.5, -0.2756, 0.3865, 2.5, -0.3172, 0.3834, 1.5, -0.3147, 0.4124, 1.5, -0.2756, 0.3865, 2.5, -0.3172, 0.3536, 2.5, -0.3536, 0.3834, 1.5, -0.3147, 0.3536, 2.5, -0.3536, 0.3507, 1.5, -0.3507, 0.3834, 1.5, -0.3147, 0.3536, 2.5, -0.3536, 0.3172, 2.5, -0.3865, 0.3507, 1.5, -0.3507, 0.3172, 2.5, -0.3865, 0.3147, 1.5, -0.3834, 0.3507, 1.5, -0.3507, 0.3172, 2.5, -0.3865, 0.2778, 2.5, -0.4157, 0.3147, 1.5, -0.3834, 0.2778, 2.5, -0.4157, 0.2756, 1.5, -0.4124, 0.3147, 1.5, -0.3834, 0.2778, 2.5, -0.4157, 0.2357, 2.5, -0.441, 0.2756, 1.5, -0.4124, 0.2357, 2.5, -0.441, 0.2338, 1.5, -0.4374, 0.2756, 1.5, -0.4124, 0.2357, 2.5, -0.441, 0.1913, 2.5, -0.4619, 0.2338, 1.5, -0.4374, 0.1913, 2.5, -0.4619, 0.1898, 1.5, -0.4582, 0.2338, 1.5, -0.4374, 0.1913, 2.5, -0.4619, 0.1451, 2.5, -0.4785, 0.1898, 1.5, -0.4582, 0.1451, 2.5, -0.4785, 0.144, 1.5, -0.4746, 0.1898, 1.5, -0.4582, 0.1451, 2.5, -0.4785, 0.0975, 2.5, -0.4904, 0.144, 1.5, -0.4746, 0.0975, 2.5, -0.4904, 0.0968, 1.5, -0.4865, 0.144, 1.5, -0.4746, 0.0975, 2.5, -0.4904, 0.049, 2.5, -0.4976, 0.0968, 1.5, -0.4865, 0.049, 2.5, -0.4976, 0.0486, 1.5, -0.4936, 0.0968, 1.5, -0.4865, 0.049, 2.5, -0.4976, 0, 2.5, -0.5, 0.0486, 1.5, -0.4936, 0, 2.5, -0.5, 0, 1.5, -0.496, 0.0486, 1.5, -0.4936, 0, 2.5, -0.5, -0.049, 2.5, -0.4976, 0, 1.5, -0.496, -0.049, 2.5, -0.4976, -0.0486, 1.5, -0.4936, 0, 1.5, -0.496, -0.049, 2.5, -0.4976, -0.0975, 2.5, -0.4904, -0.0486, 1.5, -0.4936, -0.0975, 2.5, -0.4904, -0.0968, 1.5, -0.4865, -0.0486, 1.5, -0.4936, -0.0975, 2.5, -0.4904, -0.1451, 2.5, -0.4785, -0.0968, 1.5, -0.4865, -0.1451, 2.5, -0.4785, -0.144, 1.5, -0.4746, -0.0968, 1.5, -0.4865, -0.1451, 2.5, -0.4785, -0.1913, 2.5, -0.4619, -0.144, 1.5, -0.4746, -0.1913, 2.5, -0.4619, -0.1898, 1.5, -0.4582, -0.144, 1.5, -0.4746, -0.1913, 2.5, -0.4619, -0.2357, 2.5, -0.441, -0.1898, 1.5, -0.4582, -0.2357, 2.5, -0.441, -0.2338, 1.5, -0.4374, -0.1898, 1.5, -0.4582, -0.2357, 2.5, -0.441, -0.2778, 2.5, -0.4157, -0.2338, 1.5, -0.4374, -0.2778, 2.5, -0.4157, -0.2756, 1.5, -0.4124, -0.2338, 1.5, -0.4374, -0.2778, 2.5, -0.4157, -0.3172, 2.5, -0.3865, -0.2756, 1.5, -0.4124, -0.3172, 2.5, -0.3865, -0.3147, 1.5, -0.3834, -0.2756, 1.5, -0.4124, -0.3172, 2.5, -0.3865, -0.3536, 2.5, -0.3536, -0.3147, 1.5, -0.3834, -0.3536, 2.5, -0.3536, -0.3507, 1.5, -0.3507, -0.3147, 1.5, -0.3834, -0.3536, 2.5, -0.3536, -0.3865, 2.5, -0.3172, -0.3507, 1.5, -0.3507, -0.3865, 2.5, -0.3172, -0.3834, 1.5, -0.3147, -0.3507, 1.5, -0.3507, -0.3865, 2.5, -0.3172, -0.4157, 2.5, -0.2778, -0.3834, 1.5, -0.3147, -0.4157, 2.5, -0.2778, -0.4124, 1.5, -0.2756, -0.3834, 1.5, -0.3147, -0.4157, 2.5, -0.2778, -0.441, 2.5, -0.2357, -0.4124, 1.5, -0.2756, -0.441, 2.5, -0.2357, -0.4374, 1.5, -0.2338, -0.4124, 1.5, -0.2756, -0.441, 2.5, -0.2357, -0.4619, 2.5, -0.1913, -0.4374, 1.5, -0.2338, -0.4619, 2.5, -0.1913, -0.4582, 1.5, -0.1898, -0.4374, 1.5, -0.2338, -0.4619, 2.5, -0.1913, -0.4785, 2.5, -0.1451, -0.4582, 1.5, -0.1898, -0.4785, 2.5, -0.1451, -0.4746, 1.5, -0.144, -0.4582, 1.5, -0.1898, -0.4785, 2.5, -0.1451, -0.4904, 2.5, -0.0975, -0.4746, 1.5, -0.144, -0.4904, 2.5, -0.0975, -0.4865, 1.5, -0.0968, -0.4746, 1.5, -0.144, -0.4904, 2.5, -0.0975, -0.4976, 2.5, -0.049, -0.4865, 1.5, -0.0968, -0.4976, 2.5, -0.049, -0.4936, 1.5, -0.0486, -0.4865, 1.5, -0.0968, -0.4976, 2.5, -0.049, -0.5, 2.5, 0, -0.4936, 1.5, -0.0486, -0.5, 2.5, 0, -0.496, 1.5, 0, -0.4936, 1.5, -0.0486, -0.5, 2.5, 0, -0.4976, 2.5, 0.049, -0.496, 1.5, 0, -0.4976, 2.5, 0.049, -0.4936, 1.5, 0.0486, -0.496, 1.5, 0, -0.4976, 2.5, 0.049, -0.4904, 2.5, 0.0975, -0.4936, 1.5, 0.0486, -0.4904, 2.5, 0.0975, -0.4865, 1.5, 0.0968, -0.4936, 1.5, 0.0486, -0.4904, 2.5, 0.0975, -0.4785, 2.5, 0.1451, -0.4865, 1.5, 0.0968, -0.4785, 2.5, 0.1451, -0.4746, 1.5, 0.144, -0.4865, 1.5, 0.0968, -0.4785, 2.5, 0.1451, -0.4619, 2.5, 0.1913, -0.4746, 1.5, 0.144, -0.4619, 2.5, 0.1913, -0.4582, 1.5, 0.1898, -0.4746, 1.5, 0.144, -0.4619, 2.5, 0.1913, -0.441, 2.5, 0.2357, -0.4582, 1.5, 0.1898, -0.441, 2.5, 0.2357, -0.4374, 1.5, 0.2338, -0.4582, 1.5, 0.1898, -0.441, 2.5, 0.2357, -0.4157, 2.5, 0.2778, -0.4374, 1.5, 0.2338, -0.4157, 2.5, 0.2778, -0.4124, 1.5, 0.2756, -0.4374, 1.5, 0.2338, -0.4157, 2.5, 0.2778, -0.3865, 2.5, 0.3172, -0.4124, 1.5, 0.2756, -0.3865, 2.5, 0.3172, -0.3834, 1.5, 0.3147, -0.4124, 1.5, 0.2756, -0.3865, 2.5, 0.3172, -0.3536, 2.5, 0.3536, -0.3834, 1.5, 0.3147, -0.3536, 2.5, 0.3536, -0.3507, 1.5, 0.3507, -0.3834, 1.5, 0.3147, -0.3536, 2.5, 0.3536, -0.3172, 2.5, 0.3865, -0.3507, 1.5, 0.3507, -0.3172, 2.5, 0.3865, -0.3147, 1.5, 0.3834, -0.3507, 1.5, 0.3507, -0.3172, 2.5, 0.3865, -0.2778, 2.5, 0.4157, -0.3147, 1.5, 0.3834, -0.2778, 2.5, 0.4157, -0.2756, 1.5, 0.4124, -0.3147, 1.5, 0.3834, -0.2778, 2.5, 0.4157, -0.2357, 2.5, 0.441, -0.2756, 1.5, 0.4124, -0.2357, 2.5, 0.441, -0.2338, 1.5, 0.4374, -0.2756, 1.5, 0.4124, -0.2357, 2.5, 0.441, -0.1913, 2.5, 0.4619, -0.2338, 1.5, 0.4374, -0.1913, 2.5, 0.4619, -0.1898, 1.5, 0.4582, -0.2338, 1.5, 0.4374, -0.1913, 2.5, 0.4619, -0.1451, 2.5, 0.4785, -0.1898, 1.5, 0.4582, -0.1451, 2.5, 0.4785, -0.144, 1.5, 0.4746, -0.1898, 1.5, 0.4582, -0.1451, 2.5, 0.4785, -0.0975, 2.5, 0.4904, -0.144, 1.5, 0.4746, -0.0975, 2.5, 0.4904, -0.0968, 1.5, 0.4865, -0.144, 1.5, 0.4746, -0.0975, 2.5, 0.4904, -0.049, 2.5, 0.4976, -0.0968, 1.5, 0.4865, -0.049, 2.5, 0.4976, -0.0486, 1.5, 0.4936, -0.0968, 1.5, 0.4865, -0.049, 2.5, 0.4976, 0, 2.5, 0.5, -0.0486, 1.5, 0.4936, 0, 2.5, 0.5, 0, 1.5, 0.496, -0.0486, 1.5, 0.4936, 0, 1.5, 0.496, 0.0486, 1.5, 0.4936, 0, 0.5, 0.492, 0.0486, 1.5, 0.4936, 0.0482, 0.5, 0.4896, 0, 0.5, 0.492, 0.0486, 1.5, 0.4936, 0.0968, 1.5, 0.4865, 0.0482, 0.5, 0.4896, 0.0968, 1.5, 0.4865, 0.096, 0.5, 0.4825, 0.0482, 0.5, 0.4896, 0.0968, 1.5, 0.4865, 0.144, 1.5, 0.4746, 0.096, 0.5, 0.4825, 0.144, 1.5, 0.4746, 0.1428, 0.5, 0.4708, 0.096, 0.5, 0.4825, 0.144, 1.5, 0.4746, 0.1898, 1.5, 0.4582, 0.1428, 0.5, 0.4708, 0.1898, 1.5, 0.4582, 0.1883, 0.5, 0.4545, 0.1428, 0.5, 0.4708, 0.1898, 1.5, 0.4582, 0.2338, 1.5, 0.4374, 0.1883, 0.5, 0.4545, 0.2338, 1.5, 0.4374, 0.2319, 0.5, 0.4339, 0.1883, 0.5, 0.4545, 0.2338, 1.5, 0.4374, 0.2756, 1.5, 0.4124, 0.2319, 0.5, 0.4339, 0.2756, 1.5, 0.4124, 0.2733, 0.5, 0.4091, 0.2319, 0.5, 0.4339, 0.2756, 1.5, 0.4124, 0.3147, 1.5, 0.3834, 0.2733, 0.5, 0.4091, 0.3147, 1.5, 0.3834, 0.3121, 0.5, 0.3803, 0.2733, 0.5, 0.4091, 0.3147, 1.5, 0.3834, 0.3507, 1.5, 0.3507, 0.3121, 0.5, 0.3803, 0.3507, 1.5, 0.3507, 0.3479, 0.5, 0.3479, 0.3121, 0.5, 0.3803, 0.3507, 1.5, 0.3507, 0.3834, 1.5, 0.3147, 0.3479, 0.5, 0.3479, 0.3834, 1.5, 0.3147, 0.3803, 0.5, 0.3121, 0.3479, 0.5, 0.3479, 0.3834, 1.5, 0.3147, 0.4124, 1.5, 0.2756, 0.3803, 0.5, 0.3121, 0.4124, 1.5, 0.2756, 0.4091, 0.5, 0.2733, 0.3803, 0.5, 0.3121, 0.4124, 1.5, 0.2756, 0.4374, 1.5, 0.2338, 0.4091, 0.5, 0.2733, 0.4374, 1.5, 0.2338, 0.4339, 0.5, 0.2319, 0.4091, 0.5, 0.2733, 0.4374, 1.5, 0.2338, 0.4582, 1.5, 0.1898, 0.4339, 0.5, 0.2319, 0.4582, 1.5, 0.1898, 0.4545, 0.5, 0.1883, 0.4339, 0.5, 0.2319, 0.4582, 1.5, 0.1898, 0.4746, 1.5, 0.144, 0.4545, 0.5, 0.1883, 0.4746, 1.5, 0.144, 0.4708, 0.5, 0.1428, 0.4545, 0.5, 0.1883, 0.4746, 1.5, 0.144, 0.4865, 1.5, 0.0968, 0.4708, 0.5, 0.1428, 0.4865, 1.5, 0.0968, 0.4825, 0.5, 0.096, 0.4708, 0.5, 0.1428, 0.4865, 1.5, 0.0968, 0.4936, 1.5, 0.0486, 0.4825, 0.5, 0.096, 0.4936, 1.5, 0.0486, 0.4896, 0.5, 0.0482, 0.4825, 0.5, 0.096, 0.4936, 1.5, 0.0486, 0.496, 1.5, 0, 0.4896, 0.5, 0.0482, 0.496, 1.5, 0, 0.492, 0.5, 0, 0.4896, 0.5, 0.0482, 0.496, 1.5, 0, 0.4936, 1.5, -0.0486, 0.492, 0.5, 0, 0.4936, 1.5, -0.0486, 0.4896, 0.5, -0.0482, 0.492, 0.5, 0, 0.4936, 1.5, -0.0486, 0.4865, 1.5, -0.0968, 0.4896, 0.5, -0.0482, 0.4865, 1.5, -0.0968, 0.4825, 0.5, -0.096, 0.4896, 0.5, -0.0482, 0.4865, 1.5, -0.0968, 0.4746, 1.5, -0.144, 0.4825, 0.5, -0.096, 0.4746, 1.5, -0.144, 0.4708, 0.5, -0.1428, 0.4825, 0.5, -0.096, 0.4746, 1.5, -0.144, 0.4582, 1.5, -0.1898, 0.4708, 0.5, -0.1428, 0.4582, 1.5, -0.1898, 0.4545, 0.5, -0.1883, 0.4708, 0.5, -0.1428, 0.4582, 1.5, -0.1898, 0.4374, 1.5, -0.2338, 0.4545, 0.5, -0.1883, 0.4374, 1.5, -0.2338, 0.4339, 0.5, -0.2319, 0.4545, 0.5, -0.1883, 0.4374, 1.5, -0.2338, 0.4124, 1.5, -0.2756, 0.4339, 0.5, -0.2319, 0.4124, 1.5, -0.2756, 0.4091, 0.5, -0.2733, 0.4339, 0.5, -0.2319, 0.4124, 1.5, -0.2756, 0.3834, 1.5, -0.3147, 0.4091, 0.5, -0.2733, 0.3834, 1.5, -0.3147, 0.3803, 0.5, -0.3121, 0.4091, 0.5, -0.2733, 0.3834, 1.5, -0.3147, 0.3507, 1.5, -0.3507, 0.3803, 0.5, -0.3121, 0.3507, 1.5, -0.3507, 0.3479, 0.5, -0.3479, 0.3803, 0.5, -0.3121, 0.3507, 1.5, -0.3507, 0.3147, 1.5, -0.3834, 0.3479, 0.5, -0.3479, 0.3147, 1.5, -0.3834, 0.3121, 0.5, -0.3803, 0.3479, 0.5, -0.3479, 0.3147, 1.5, -0.3834, 0.2756, 1.5, -0.4124, 0.3121, 0.5, -0.3803, 0.2756, 1.5, -0.4124, 0.2733, 0.5, -0.4091, 0.3121, 0.5, -0.3803, 0.2756, 1.5, -0.4124, 0.2338, 1.5, -0.4374, 0.2733, 0.5, -0.4091, 0.2338, 1.5, -0.4374, 0.2319, 0.5, -0.4339, 0.2733, 0.5, -0.4091, 0.2338, 1.5, -0.4374, 0.1898, 1.5, -0.4582, 0.2319, 0.5, -0.4339, 0.1898, 1.5, -0.4582, 0.1883, 0.5, -0.4545, 0.2319, 0.5, -0.4339, 0.1898, 1.5, -0.4582, 0.144, 1.5, -0.4746, 0.1883, 0.5, -0.4545, 0.144, 1.5, -0.4746, 0.1428, 0.5, -0.4708, 0.1883, 0.5, -0.4545, 0.144, 1.5, -0.4746, 0.0968, 1.5, -0.4865, 0.1428, 0.5, -0.4708, 0.0968, 1.5, -0.4865, 0.096, 0.5, -0.4825, 0.1428, 0.5, -0.4708, 0.0968, 1.5, -0.4865, 0.0486, 1.5, -0.4936, 0.096, 0.5, -0.4825, 0.0486, 1.5, -0.4936, 0.0482, 0.5, -0.4896, 0.096, 0.5, -0.4825, 0.0486, 1.5, -0.4936, 0, 1.5, -0.496, 0.0482, 0.5, -0.4896, 0, 1.5, -0.496, 0, 0.5, -0.492, 0.0482, 0.5, -0.4896, 0, 1.5, -0.496, -0.0486, 1.5, -0.4936, 0, 0.5, -0.492, -0.0486, 1.5, -0.4936, -0.0482, 0.5, -0.4896, 0, 0.5, -0.492, -0.0486, 1.5, -0.4936, -0.0968, 1.5, -0.4865, -0.0482, 0.5, -0.4896, -0.0968, 1.5, -0.4865, -0.096, 0.5, -0.4825, -0.0482, 0.5, -0.4896, -0.0968, 1.5, -0.4865, -0.144, 1.5, -0.4746, -0.096, 0.5, -0.4825, -0.144, 1.5, -0.4746, -0.1428, 0.5, -0.4708, -0.096, 0.5, -0.4825, -0.144, 1.5, -0.4746, -0.1898, 1.5, -0.4582, -0.1428, 0.5, -0.4708, -0.1898, 1.5, -0.4582, -0.1883, 0.5, -0.4545, -0.1428, 0.5, -0.4708, -0.1898, 1.5, -0.4582, -0.2338, 1.5, -0.4374, -0.1883, 0.5, -0.4545, -0.2338, 1.5, -0.4374, -0.2319, 0.5, -0.4339, -0.1883, 0.5, -0.4545, -0.2338, 1.5, -0.4374, -0.2756, 1.5, -0.4124, -0.2319, 0.5, -0.4339, -0.2756, 1.5, -0.4124, -0.2733, 0.5, -0.4091, -0.2319, 0.5, -0.4339, -0.2756, 1.5, -0.4124, -0.3147, 1.5, -0.3834, -0.2733, 0.5, -0.4091, -0.3147, 1.5, -0.3834, -0.3121, 0.5, -0.3803, -0.2733, 0.5, -0.4091, -0.3147, 1.5, -0.3834, -0.3507, 1.5, -0.3507, -0.3121, 0.5, -0.3803, -0.3507, 1.5, -0.3507, -0.3479, 0.5, -0.3479, -0.3121, 0.5, -0.3803, -0.3507, 1.5, -0.3507, -0.3834, 1.5, -0.3147, -0.3479, 0.5, -0.3479, -0.3834, 1.5, -0.3147, -0.3803, 0.5, -0.3121, -0.3479, 0.5, -0.3479, -0.3834, 1.5, -0.3147, -0.4124, 1.5, -0.2756, -0.3803, 0.5, -0.3121, -0.4124, 1.5, -0.2756, -0.4091, 0.5, -0.2733, -0.3803, 0.5, -0.3121, -0.4124, 1.5, -0.2756, -0.4374, 1.5, -0.2338, -0.4091, 0.5, -0.2733, -0.4374, 1.5, -0.2338, -0.4339, 0.5, -0.2319, -0.4091, 0.5, -0.2733, -0.4374, 1.5, -0.2338, -0.4582, 1.5, -0.1898, -0.4339, 0.5, -0.2319, -0.4582, 1.5, -0.1898, -0.4545, 0.5, -0.1883, -0.4339, 0.5, -0.2319, -0.4582, 1.5, -0.1898, -0.4746, 1.5, -0.144, -0.4545, 0.5, -0.1883, -0.4746, 1.5, -0.144, -0.4708, 0.5, -0.1428, -0.4545, 0.5, -0.1883, -0.4746, 1.5, -0.144, -0.4865, 1.5, -0.0968, -0.4708, 0.5, -0.1428, -0.4865, 1.5, -0.0968, -0.4825, 0.5, -0.096, -0.4708, 0.5, -0.1428, -0.4865, 1.5, -0.0968, -0.4936, 1.5, -0.0486, -0.4825, 0.5, -0.096, -0.4936, 1.5, -0.0486, -0.4896, 0.5, -0.0482, -0.4825, 0.5, -0.096, -0.4936, 1.5, -0.0486, -0.496, 1.5, 0, -0.4896, 0.5, -0.0482, -0.496, 1.5, 0, -0.492, 0.5, 0, -0.4896, 0.5, -0.0482, -0.496, 1.5, 0, -0.4936, 1.5, 0.0486, -0.492, 0.5, 0, -0.4936, 1.5, 0.0486, -0.4896, 0.5, 0.0482, -0.492, 0.5, 0, -0.4936, 1.5, 0.0486, -0.4865, 1.5, 0.0968, -0.4896, 0.5, 0.0482, -0.4865, 1.5, 0.0968, -0.4825, 0.5, 0.096, -0.4896, 0.5, 0.0482, -0.4865, 1.5, 0.0968, -0.4746, 1.5, 0.144, -0.4825, 0.5, 0.096, -0.4746, 1.5, 0.144, -0.4708, 0.5, 0.1428, -0.4825, 0.5, 0.096, -0.4746, 1.5, 0.144, -0.4582, 1.5, 0.1898, -0.4708, 0.5, 0.1428, -0.4582, 1.5, 0.1898, -0.4545, 0.5, 0.1883, -0.4708, 0.5, 0.1428, -0.4582, 1.5, 0.1898, -0.4374, 1.5, 0.2338, -0.4545, 0.5, 0.1883, -0.4374, 1.5, 0.2338, -0.4339, 0.5, 0.2319, -0.4545, 0.5, 0.1883, -0.4374, 1.5, 0.2338, -0.4124, 1.5, 0.2756, -0.4339, 0.5, 0.2319, -0.4124, 1.5, 0.2756, -0.4091, 0.5, 0.2733, -0.4339, 0.5, 0.2319, -0.4124, 1.5, 0.2756, -0.3834, 1.5, 0.3147, -0.4091, 0.5, 0.2733, -0.3834, 1.5, 0.3147, -0.3803, 0.5, 0.3121, -0.4091, 0.5, 0.2733, -0.3834, 1.5, 0.3147, -0.3507, 1.5, 0.3507, -0.3803, 0.5, 0.3121, -0.3507, 1.5, 0.3507, -0.3479, 0.5, 0.3479, -0.3803, 0.5, 0.3121, -0.3507, 1.5, 0.3507, -0.3147, 1.5, 0.3834, -0.3479, 0.5, 0.3479, -0.3147, 1.5, 0.3834, -0.3121, 0.5, 0.3803, -0.3479, 0.5, 0.3479, -0.3147, 1.5, 0.3834, -0.2756, 1.5, 0.4124, -0.3121, 0.5, 0.3803, -0.2756, 1.5, 0.4124, -0.2733, 0.5, 0.4091, -0.3121, 0.5, 0.3803, -0.2756, 1.5, 0.4124, -0.2338, 1.5, 0.4374, -0.2733, 0.5, 0.4091, -0.2338, 1.5, 0.4374, -0.2319, 0.5, 0.4339, -0.2733, 0.5, 0.4091, -0.2338, 1.5, 0.4374, -0.1898, 1.5, 0.4582, -0.2319, 0.5, 0.4339, -0.1898, 1.5, 0.4582, -0.1883, 0.5, 0.4545, -0.2319, 0.5, 0.4339, -0.1898, 1.5, 0.4582, -0.144, 1.5, 0.4746, -0.1883, 0.5, 0.4545, -0.144, 1.5, 0.4746, -0.1428, 0.5, 0.4708, -0.1883, 0.5, 0.4545, -0.144, 1.5, 0.4746, -0.0968, 1.5, 0.4865, -0.1428, 0.5, 0.4708, -0.0968, 1.5, 0.4865, -0.096, 0.5, 0.4825, -0.1428, 0.5, 0.4708, -0.0968, 1.5, 0.4865, -0.0486, 1.5, 0.4936, -0.096, 0.5, 0.4825, -0.0486, 1.5, 0.4936, -0.0482, 0.5, 0.4896, -0.096, 0.5, 0.4825, -0.0486, 1.5, 0.4936, 0, 1.5, 0.496, -0.0482, 0.5, 0.4896, 0, 1.5, 0.496, 0, 0.5, 0.492, -0.0482, 0.5, 0.4896, 0, 0.5, 0.492, 0.0482, 0.5, 0.4896, 0, -0.5, 0.488, 0.0482, 0.5, 0.4896, 0.0478, -0.5, 0.4857, 0, -0.5, 0.488, 0.0482, 0.5, 0.4896, 0.096, 0.5, 0.4825, 0.0478, -0.5, 0.4857, 0.096, 0.5, 0.4825, 0.0952, -0.5, 0.4786, 0.0478, -0.5, 0.4857, 0.096, 0.5, 0.4825, 0.1428, 0.5, 0.4708, 0.0952, -0.5, 0.4786, 0.1428, 0.5, 0.4708, 0.1417, -0.5, 0.467, 0.0952, -0.5, 0.4786, 0.1428, 0.5, 0.4708, 0.1883, 0.5, 0.4545, 0.1417, -0.5, 0.467, 0.1883, 0.5, 0.4545, 0.1867, -0.5, 0.4509, 0.1417, -0.5, 0.467, 0.1883, 0.5, 0.4545, 0.2319, 0.5, 0.4339, 0.1867, -0.5, 0.4509, 0.2319, 0.5, 0.4339, 0.23, -0.5, 0.4304, 0.1867, -0.5, 0.4509, 0.2319, 0.5, 0.4339, 0.2733, 0.5, 0.4091, 0.23, -0.5, 0.4304, 0.2733, 0.5, 0.4091, 0.2711, -0.5, 0.4058, 0.23, -0.5, 0.4304, 0.2733, 0.5, 0.4091, 0.3121, 0.5, 0.3803, 0.2711, -0.5, 0.4058, 0.3121, 0.5, 0.3803, 0.3096, -0.5, 0.3772, 0.2711, -0.5, 0.4058, 0.3121, 0.5, 0.3803, 0.3479, 0.5, 0.3479, 0.3096, -0.5, 0.3772, 0.3479, 0.5, 0.3479, 0.3451, -0.5, 0.3451, 0.3096, -0.5, 0.3772, 0.3479, 0.5, 0.3479, 0.3803, 0.5, 0.3121, 0.3451, -0.5, 0.3451, 0.3803, 0.5, 0.3121, 0.3772, -0.5, 0.3096, 0.3451, -0.5, 0.3451, 0.3803, 0.5, 0.3121, 0.4091, 0.5, 0.2733, 0.3772, -0.5, 0.3096, 0.4091, 0.5, 0.2733, 0.4058, -0.5, 0.2711, 0.3772, -0.5, 0.3096, 0.4091, 0.5, 0.2733, 0.4339, 0.5, 0.2319, 0.4058, -0.5, 0.2711, 0.4339, 0.5, 0.2319, 0.4304, -0.5, 0.23, 0.4058, -0.5, 0.2711, 0.4339, 0.5, 0.2319, 0.4545, 0.5, 0.1883, 0.4304, -0.5, 0.23, 0.4545, 0.5, 0.1883, 0.4509, -0.5, 0.1867, 0.4304, -0.5, 0.23, 0.4545, 0.5, 0.1883, 0.4708, 0.5, 0.1428, 0.4509, -0.5, 0.1867, 0.4708, 0.5, 0.1428, 0.467, -0.5, 0.1417, 0.4509, -0.5, 0.1867, 0.4708, 0.5, 0.1428, 0.4825, 0.5, 0.096, 0.467, -0.5, 0.1417, 0.4825, 0.5, 0.096, 0.4786, -0.5, 0.0952, 0.467, -0.5, 0.1417, 0.4825, 0.5, 0.096, 0.4896, 0.5, 0.0482, 0.4786, -0.5, 0.0952, 0.4896, 0.5, 0.0482, 0.4857, -0.5, 0.0478, 0.4786, -0.5, 0.0952, 0.4896, 0.5, 0.0482, 0.492, 0.5, 0, 0.4857, -0.5, 0.0478, 0.492, 0.5, 0, 0.488, -0.5, 0, 0.4857, -0.5, 0.0478, 0.492, 0.5, 0, 0.4896, 0.5, -0.0482, 0.488, -0.5, 0, 0.4896, 0.5, -0.0482, 0.4857, -0.5, -0.0478, 0.488, -0.5, 0, 0.4896, 0.5, -0.0482, 0.4825, 0.5, -0.096, 0.4857, -0.5, -0.0478, 0.4825, 0.5, -0.096, 0.4786, -0.5, -0.0952, 0.4857, -0.5, -0.0478, 0.4825, 0.5, -0.096, 0.4708, 0.5, -0.1428, 0.4786, -0.5, -0.0952, 0.4708, 0.5, -0.1428, 0.467, -0.5, -0.1417, 0.4786, -0.5, -0.0952, 0.4708, 0.5, -0.1428, 0.4545, 0.5, -0.1883, 0.467, -0.5, -0.1417, 0.4545, 0.5, -0.1883, 0.4509, -0.5, -0.1867, 0.467, -0.5, -0.1417, 0.4545, 0.5, -0.1883, 0.4339, 0.5, -0.2319, 0.4509, -0.5, -0.1867, 0.4339, 0.5, -0.2319, 0.4304, -0.5, -0.23, 0.4509, -0.5, -0.1867, 0.4339, 0.5, -0.2319, 0.4091, 0.5, -0.2733, 0.4304, -0.5, -0.23, 0.4091, 0.5, -0.2733, 0.4058, -0.5, -0.2711, 0.4304, -0.5, -0.23, 0.4091, 0.5, -0.2733, 0.3803, 0.5, -0.3121, 0.4058, -0.5, -0.2711, 0.3803, 0.5, -0.3121, 0.3772, -0.5, -0.3096, 0.4058, -0.5, -0.2711, 0.3803, 0.5, -0.3121, 0.3479, 0.5, -0.3479, 0.3772, -0.5, -0.3096, 0.3479, 0.5, -0.3479, 0.3451, -0.5, -0.3451, 0.3772, -0.5, -0.3096, 0.3479, 0.5, -0.3479, 0.3121, 0.5, -0.3803, 0.3451, -0.5, -0.3451, 0.3121, 0.5, -0.3803, 0.3096, -0.5, -0.3772, 0.3451, -0.5, -0.3451, 0.3121, 0.5, -0.3803, 0.2733, 0.5, -0.4091, 0.3096, -0.5, -0.3772, 0.2733, 0.5, -0.4091, 0.2711, -0.5, -0.4058, 0.3096, -0.5, -0.3772, 0.2733, 0.5, -0.4091, 0.2319, 0.5, -0.4339, 0.2711, -0.5, -0.4058, 0.2319, 0.5, -0.4339, 0.23, -0.5, -0.4304, 0.2711, -0.5, -0.4058, 0.2319, 0.5, -0.4339, 0.1883, 0.5, -0.4545, 0.23, -0.5, -0.4304, 0.1883, 0.5, -0.4545, 0.1867, -0.5, -0.4509, 0.23, -0.5, -0.4304, 0.1883, 0.5, -0.4545, 0.1428, 0.5, -0.4708, 0.1867, -0.5, -0.4509, 0.1428, 0.5, -0.4708, 0.1417, -0.5, -0.467, 0.1867, -0.5, -0.4509, 0.1428, 0.5, -0.4708, 0.096, 0.5, -0.4825, 0.1417, -0.5, -0.467, 0.096, 0.5, -0.4825, 0.0952, -0.5, -0.4786, 0.1417, -0.5, -0.467, 0.096, 0.5, -0.4825, 0.0482, 0.5, -0.4896, 0.0952, -0.5, -0.4786, 0.0482, 0.5, -0.4896, 0.0478, -0.5, -0.4857, 0.0952, -0.5, -0.4786, 0.0482, 0.5, -0.4896, 0, 0.5, -0.492, 0.0478, -0.5, -0.4857, 0, 0.5, -0.492, 0, -0.5, -0.488, 0.0478, -0.5, -0.4857, 0, 0.5, -0.492, -0.0482, 0.5, -0.4896, 0, -0.5, -0.488, -0.0482, 0.5, -0.4896, -0.0478, -0.5, -0.4857, 0, -0.5, -0.488, -0.0482, 0.5, -0.4896, -0.096, 0.5, -0.4825, -0.0478, -0.5, -0.4857, -0.096, 0.5, -0.4825, -0.0952, -0.5, -0.4786, -0.0478, -0.5, -0.4857, -0.096, 0.5, -0.4825, -0.1428, 0.5, -0.4708, -0.0952, -0.5, -0.4786, -0.1428, 0.5, -0.4708, -0.1417, -0.5, -0.467, -0.0952, -0.5, -0.4786, -0.1428, 0.5, -0.4708, -0.1883, 0.5, -0.4545, -0.1417, -0.5, -0.467, -0.1883, 0.5, -0.4545, -0.1867, -0.5, -0.4509, -0.1417, -0.5, -0.467, -0.1883, 0.5, -0.4545, -0.2319, 0.5, -0.4339, -0.1867, -0.5, -0.4509, -0.2319, 0.5, -0.4339, -0.23, -0.5, -0.4304, -0.1867, -0.5, -0.4509, -0.2319, 0.5, -0.4339, -0.2733, 0.5, -0.4091, -0.23, -0.5, -0.4304, -0.2733, 0.5, -0.4091, -0.2711, -0.5, -0.4058, -0.23, -0.5, -0.4304, -0.2733, 0.5, -0.4091, -0.3121, 0.5, -0.3803, -0.2711, -0.5, -0.4058, -0.3121, 0.5, -0.3803, -0.3096, -0.5, -0.3772, -0.2711, -0.5, -0.4058, -0.3121, 0.5, -0.3803, -0.3479, 0.5, -0.3479, -0.3096, -0.5, -0.3772, -0.3479, 0.5, -0.3479, -0.3451, -0.5, -0.3451, -0.3096, -0.5, -0.3772, -0.3479, 0.5, -0.3479, -0.3803, 0.5, -0.3121, -0.3451, -0.5, -0.3451, -0.3803, 0.5, -0.3121, -0.3772, -0.5, -0.3096, -0.3451, -0.5, -0.3451, -0.3803, 0.5, -0.3121, -0.4091, 0.5, -0.2733, -0.3772, -0.5, -0.3096, -0.4091, 0.5, -0.2733, -0.4058, -0.5, -0.2711, -0.3772, -0.5, -0.3096, -0.4091, 0.5, -0.2733, -0.4339, 0.5, -0.2319, -0.4058, -0.5, -0.2711, -0.4339, 0.5, -0.2319, -0.4304, -0.5, -0.23, -0.4058, -0.5, -0.2711, -0.4339, 0.5, -0.2319, -0.4545, 0.5, -0.1883, -0.4304, -0.5, -0.23, -0.4545, 0.5, -0.1883, -0.4509, -0.5, -0.1867, -0.4304, -0.5, -0.23, -0.4545, 0.5, -0.1883, -0.4708, 0.5, -0.1428, -0.4509, -0.5, -0.1867, -0.4708, 0.5, -0.1428, -0.467, -0.5, -0.1417, -0.4509, -0.5, -0.1867, -0.4708, 0.5, -0.1428, -0.4825, 0.5, -0.096, -0.467, -0.5, -0.1417, -0.4825, 0.5, -0.096, -0.4786, -0.5, -0.0952, -0.467, -0.5, -0.1417, -0.4825, 0.5, -0.096, -0.4896, 0.5, -0.0482, -0.4786, -0.5, -0.0952, -0.4896, 0.5, -0.0482, -0.4857, -0.5, -0.0478, -0.4786, -0.5, -0.0952, -0.4896, 0.5, -0.0482, -0.492, 0.5, 0, -0.4857, -0.5, -0.0478, -0.492, 0.5, 0, -0.488, -0.5, 0, -0.4857, -0.5, -0.0478, -0.492, 0.5, 0, -0.4896, 0.5, 0.0482, -0.488, -0.5, 0, -0.4896, 0.5, 0.0482, -0.4857, -0.5, 0.0478, -0.488, -0.5, 0, -0.4896, 0.5, 0.0482, -0.4825, 0.5, 0.096, -0.4857, -0.5, 0.0478, -0.4825, 0.5, 0.096, -0.4786, -0.5, 0.0952, -0.4857, -0.5, 0.0478, -0.4825, 0.5, 0.096, -0.4708, 0.5, 0.1428, -0.4786, -0.5, 0.0952, -0.4708, 0.5, 0.1428, -0.467, -0.5, 0.1417, -0.4786, -0.5, 0.0952, -0.4708, 0.5, 0.1428, -0.4545, 0.5, 0.1883, -0.467, -0.5, 0.1417, -0.4545, 0.5, 0.1883, -0.4509, -0.5, 0.1867, -0.467, -0.5, 0.1417, -0.4545, 0.5, 0.1883, -0.4339, 0.5, 0.2319, -0.4509, -0.5, 0.1867, -0.4339, 0.5, 0.2319, -0.4304, -0.5, 0.23, -0.4509, -0.5, 0.1867, -0.4339, 0.5, 0.2319, -0.4091, 0.5, 0.2733, -0.4304, -0.5, 0.23, -0.4091, 0.5, 0.2733, -0.4058, -0.5, 0.2711, -0.4304, -0.5, 0.23, -0.4091, 0.5, 0.2733, -0.3803, 0.5, 0.3121, -0.4058, -0.5, 0.2711, -0.3803, 0.5, 0.3121, -0.3772, -0.5, 0.3096, -0.4058, -0.5, 0.2711, -0.3803, 0.5, 0.3121, -0.3479, 0.5, 0.3479, -0.3772, -0.5, 0.3096, -0.3479, 0.5, 0.3479, -0.3451, -0.5, 0.3451, -0.3772, -0.5, 0.3096, -0.3479, 0.5, 0.3479, -0.3121, 0.5, 0.3803, -0.3451, -0.5, 0.3451, -0.3121, 0.5, 0.3803, -0.3096, -0.5, 0.3772, -0.3451, -0.5, 0.3451, -0.3121, 0.5, 0.3803, -0.2733, 0.5, 0.4091, -0.3096, -0.5, 0.3772, -0.2733, 0.5, 0.4091, -0.2711, -0.5, 0.4058, -0.3096, -0.5, 0.3772, -0.2733, 0.5, 0.4091, -0.2319, 0.5, 0.4339, -0.2711, -0.5, 0.4058, -0.2319, 0.5, 0.4339, -0.23, -0.5, 0.4304, -0.2711, -0.5, 0.4058, -0.2319, 0.5, 0.4339, -0.1883, 0.5, 0.4545, -0.23, -0.5, 0.4304, -0.1883, 0.5, 0.4545, -0.1867, -0.5, 0.4509, -0.23, -0.5, 0.4304, -0.1883, 0.5, 0.4545, -0.1428, 0.5, 0.4708, -0.1867, -0.5, 0.4509, -0.1428, 0.5, 0.4708, -0.1417, -0.5, 0.467, -0.1867, -0.5, 0.4509, -0.1428, 0.5, 0.4708, -0.096, 0.5, 0.4825, -0.1417, -0.5, 0.467, -0.096, 0.5, 0.4825, -0.0952, -0.5, 0.4786, -0.1417, -0.5, 0.467, -0.096, 0.5, 0.4825, -0.0482, 0.5, 0.4896, -0.0952, -0.5, 0.4786, -0.0482, 0.5, 0.4896, -0.0478, -0.5, 0.4857, -0.0952, -0.5, 0.4786, -0.0482, 0.5, 0.4896, 0, 0.5, 0.492, -0.0478, -0.5, 0.4857, 0, 0.5, 0.492, 0, -0.5, 0.488, -0.0478, -0.5, 0.4857, 0, -0.5, 0.488, 0.0478, -0.5, 0.4857, 0, -1.5, 0.484, 0.0478, -0.5, 0.4857, 0.0474, -1.5, 0.4817, 0, -1.5, 0.484, 0.0478, -0.5, 0.4857, 0.0952, -0.5, 0.4786, 0.0474, -1.5, 0.4817, 0.0952, -0.5, 0.4786, 0.0944, -1.5, 0.4747, 0.0474, -1.5, 0.4817, 0.0952, -0.5, 0.4786, 0.1417, -0.5, 0.467, 0.0944, -1.5, 0.4747, 0.1417, -0.5, 0.467, 0.1405, -1.5, 0.4632, 0.0944, -1.5, 0.4747, 0.1417, -0.5, 0.467, 0.1867, -0.5, 0.4509, 0.1405, -1.5, 0.4632, 0.1867, -0.5, 0.4509, 0.1852, -1.5, 0.4472, 0.1405, -1.5, 0.4632, 0.1867, -0.5, 0.4509, 0.23, -0.5, 0.4304, 0.1852, -1.5, 0.4472, 0.23, -0.5, 0.4304, 0.2282, -1.5, 0.4268, 0.1852, -1.5, 0.4472, 0.23, -0.5, 0.4304, 0.2711, -0.5, 0.4058, 0.2282, -1.5, 0.4268, 0.2711, -0.5, 0.4058, 0.2689, -1.5, 0.4024, 0.2282, -1.5, 0.4268, 0.2711, -0.5, 0.4058, 0.3096, -0.5, 0.3772, 0.2689, -1.5, 0.4024, 0.3096, -0.5, 0.3772, 0.307, -1.5, 0.3741, 0.2689, -1.5, 0.4024, 0.3096, -0.5, 0.3772, 0.3451, -0.5, 0.3451, 0.307, -1.5, 0.3741, 0.3451, -0.5, 0.3451, 0.3422, -1.5, 0.3422, 0.307, -1.5, 0.3741, 0.3451, -0.5, 0.3451, 0.3772, -0.5, 0.3096, 0.3422, -1.5, 0.3422, 0.3772, -0.5, 0.3096, 0.3741, -1.5, 0.307, 0.3422, -1.5, 0.3422, 0.3772, -0.5, 0.3096, 0.4058, -0.5, 0.2711, 0.3741, -1.5, 0.307, 0.4058, -0.5, 0.2711, 0.4024, -1.5, 0.2689, 0.3741, -1.5, 0.307, 0.4058, -0.5, 0.2711, 0.4304, -0.5, 0.23, 0.4024, -1.5, 0.2689, 0.4304, -0.5, 0.23, 0.4268, -1.5, 0.2282, 0.4024, -1.5, 0.2689, 0.4304, -0.5, 0.23, 0.4509, -0.5, 0.1867, 0.4268, -1.5, 0.2282, 0.4509, -0.5, 0.1867, 0.4472, -1.5, 0.1852, 0.4268, -1.5, 0.2282, 0.4509, -0.5, 0.1867, 0.467, -0.5, 0.1417, 0.4472, -1.5, 0.1852, 0.467, -0.5, 0.1417, 0.4632, -1.5, 0.1405, 0.4472, -1.5, 0.1852, 0.467, -0.5, 0.1417, 0.4786, -0.5, 0.0952, 0.4632, -1.5, 0.1405, 0.4786, -0.5, 0.0952, 0.4747, -1.5, 0.0944, 0.4632, -1.5, 0.1405, 0.4786, -0.5, 0.0952, 0.4857, -0.5, 0.0478, 0.4747, -1.5, 0.0944, 0.4857, -0.5, 0.0478, 0.4817, -1.5, 0.0474, 0.4747, -1.5, 0.0944, 0.4857, -0.5, 0.0478, 0.488, -0.5, 0, 0.4817, -1.5, 0.0474, 0.488, -0.5, 0, 0.484, -1.5, 0, 0.4817, -1.5, 0.0474, 0.488, -0.5, 0, 0.4857, -0.5, -0.0478, 0.484, -1.5, 0, 0.4857, -0.5, -0.0478, 0.4817, -1.5, -0.0474, 0.484, -1.5, 0, 0.4857, -0.5, -0.0478, 0.4786, -0.5, -0.0952, 0.4817, -1.5, -0.0474, 0.4786, -0.5, -0.0952, 0.4747, -1.5, -0.0944, 0.4817, -1.5, -0.0474, 0.4786, -0.5, -0.0952, 0.467, -0.5, -0.1417, 0.4747, -1.5, -0.0944, 0.467, -0.5, -0.1417, 0.4632, -1.5, -0.1405, 0.4747, -1.5, -0.0944, 0.467, -0.5, -0.1417, 0.4509, -0.5, -0.1867, 0.4632, -1.5, -0.1405, 0.4509, -0.5, -0.1867, 0.4472, -1.5, -0.1852, 0.4632, -1.5, -0.1405, 0.4509, -0.5, -0.1867, 0.4304, -0.5, -0.23, 0.4472, -1.5, -0.1852, 0.4304, -0.5, -0.23, 0.4268, -1.5, -0.2282, 0.4472, -1.5, -0.1852, 0.4304, -0.5, -0.23, 0.4058, -0.5, -0.2711, 0.4268, -1.5, -0.2282, 0.4058, -0.5, -0.2711, 0.4024, -1.5, -0.2689, 0.4268, -1.5, -0.2282, 0.4058, -0.5, -0.2711, 0.3772, -0.5, -0.3096, 0.4024, -1.5, -0.2689, 0.3772, -0.5, -0.3096, 0.3741, -1.5, -0.307, 0.4024, -1.5, -0.2689, 0.3772, -0.5, -0.3096, 0.3451, -0.5, -0.3451, 0.3741, -1.5, -0.307, 0.3451, -0.5, -0.3451, 0.3422, -1.5, -0.3422, 0.3741, -1.5, -0.307, 0.3451, -0.5, -0.3451, 0.3096, -0.5, -0.3772, 0.3422, -1.5, -0.3422, 0.3096, -0.5, -0.3772, 0.307, -1.5, -0.3741, 0.3422, -1.5, -0.3422, 0.3096, -0.5, -0.3772, 0.2711, -0.5, -0.4058, 0.307, -1.5, -0.3741, 0.2711, -0.5, -0.4058, 0.2689, -1.5, -0.4024, 0.307, -1.5, -0.3741, 0.2711, -0.5, -0.4058, 0.23, -0.5, -0.4304, 0.2689, -1.5, -0.4024, 0.23, -0.5, -0.4304, 0.2282, -1.5, -0.4268, 0.2689, -1.5, -0.4024, 0.23, -0.5, -0.4304, 0.1867, -0.5, -0.4509, 0.2282, -1.5, -0.4268, 0.1867, -0.5, -0.4509, 0.1852, -1.5, -0.4472, 0.2282, -1.5, -0.4268, 0.1867, -0.5, -0.4509, 0.1417, -0.5, -0.467, 0.1852, -1.5, -0.4472, 0.1417, -0.5, -0.467, 0.1405, -1.5, -0.4632, 0.1852, -1.5, -0.4472, 0.1417, -0.5, -0.467, 0.0952, -0.5, -0.4786, 0.1405, -1.5, -0.4632, 0.0952, -0.5, -0.4786, 0.0944, -1.5, -0.4747, 0.1405, -1.5, -0.4632, 0.0952, -0.5, -0.4786, 0.0478, -0.5, -0.4857, 0.0944, -1.5, -0.4747, 0.0478, -0.5, -0.4857, 0.0474, -1.5, -0.4817, 0.0944, -1.5, -0.4747, 0.0478, -0.5, -0.4857, 0, -0.5, -0.488, 0.0474, -1.5, -0.4817, 0, -0.5, -0.488, 0, -1.5, -0.484, 0.0474, -1.5, -0.4817, 0, -0.5, -0.488, -0.0478, -0.5, -0.4857, 0, -1.5, -0.484, -0.0478, -0.5, -0.4857, -0.0474, -1.5, -0.4817, 0, -1.5, -0.484, -0.0478, -0.5, -0.4857, -0.0952, -0.5, -0.4786, -0.0474, -1.5, -0.4817, -0.0952, -0.5, -0.4786, -0.0944, -1.5, -0.4747, -0.0474, -1.5, -0.4817, -0.0952, -0.5, -0.4786, -0.1417, -0.5, -0.467, -0.0944, -1.5, -0.4747, -0.1417, -0.5, -0.467, -0.1405, -1.5, -0.4632, -0.0944, -1.5, -0.4747, -0.1417, -0.5, -0.467, -0.1867, -0.5, -0.4509, -0.1405, -1.5, -0.4632, -0.1867, -0.5, -0.4509, -0.1852, -1.5, -0.4472, -0.1405, -1.5, -0.4632, -0.1867, -0.5, -0.4509, -0.23, -0.5, -0.4304, -0.1852, -1.5, -0.4472, -0.23, -0.5, -0.4304, -0.2282, -1.5, -0.4268, -0.1852, -1.5, -0.4472, -0.23, -0.5, -0.4304, -0.2711, -0.5, -0.4058, -0.2282, -1.5, -0.4268, -0.2711, -0.5, -0.4058, -0.2689, -1.5, -0.4024, -0.2282, -1.5, -0.4268, -0.2711, -0.5, -0.4058, -0.3096, -0.5, -0.3772, -0.2689, -1.5, -0.4024, -0.3096, -0.5, -0.3772, -0.307, -1.5, -0.3741, -0.2689, -1.5, -0.4024, -0.3096, -0.5, -0.3772, -0.3451, -0.5, -0.3451, -0.307, -1.5, -0.3741, -0.3451, -0.5, -0.3451, -0.3422, -1.5, -0.3422, -0.307, -1.5, -0.3741, -0.3451, -0.5, -0.3451, -0.3772, -0.5, -0.3096, -0.3422, -1.5, -0.3422, -0.3772, -0.5, -0.3096, -0.3741, -1.5, -0.307, -0.3422, -1.5, -0.3422, -0.3772, -0.5, -0.3096, -0.4058, -0.5, -0.2711, -0.3741, -1.5, -0.307, -0.4058, -0.5, -0.2711, -0.4024, -1.5, -0.2689, -0.3741, -1.5, -0.307, -0.4058, -0.5, -0.2711, -0.4304, -0.5, -0.23, -0.4024, -1.5, -0.2689, -0.4304, -0.5, -0.23, -0.4268, -1.5, -0.2282, -0.4024, -1.5, -0.2689, -0.4304, -0.5, -0.23, -0.4509, -0.5, -0.1867, -0.4268, -1.5, -0.2282, -0.4509, -0.5, -0.1867, -0.4472, -1.5, -0.1852, -0.4268, -1.5, -0.2282, -0.4509, -0.5, -0.1867, -0.467, -0.5, -0.1417, -0.4472, -1.5, -0.1852, -0.467, -0.5, -0.1417, -0.4632, -1.5, -0.1405, -0.4472, -1.5, -0.1852, -0.467, -0.5, -0.1417, -0.4786, -0.5, -0.0952, -0.4632, -1.5, -0.1405, -0.4786, -0.5, -0.0952, -0.4747, -1.5, -0.0944, -0.4632, -1.5, -0.1405, -0.4786, -0.5, -0.0952, -0.4857, -0.5, -0.0478, -0.4747, -1.5, -0.0944, -0.4857, -0.5, -0.0478, -0.4817, -1.5, -0.0474, -0.4747, -1.5, -0.0944, -0.4857, -0.5, -0.0478, -0.488, -0.5, 0, -0.4817, -1.5, -0.0474, -0.488, -0.5, 0, -0.484, -1.5, 0, -0.4817, -1.5, -0.0474, -0.488, -0.5, 0, -0.4857, -0.5, 0.0478, -0.484, -1.5, 0, -0.4857, -0.5, 0.0478, -0.4817, -1.5, 0.0474, -0.484, -1.5, 0, -0.4857, -0.5, 0.0478, -0.4786, -0.5, 0.0952, -0.4817, -1.5, 0.0474, -0.4786, -0.5, 0.0952, -0.4747, -1.5, 0.0944, -0.4817, -1.5, 0.0474, -0.4786, -0.5, 0.0952, -0.467, -0.5, 0.1417, -0.4747, -1.5, 0.0944, -0.467, -0.5, 0.1417, -0.4632, -1.5, 0.1405, -0.4747, -1.5, 0.0944, -0.467, -0.5, 0.1417, -0.4509, -0.5, 0.1867, -0.4632, -1.5, 0.1405, -0.4509, -0.5, 0.1867, -0.4472, -1.5, 0.1852, -0.4632, -1.5, 0.1405, -0.4509, -0.5, 0.1867, -0.4304, -0.5, 0.23, -0.4472, -1.5, 0.1852, -0.4304, -0.5, 0.23, -0.4268, -1.5, 0.2282, -0.4472, -1.5, 0.1852, -0.4304, -0.5, 0.23, -0.4058, -0.5, 0.2711, -0.4268, -1.5, 0.2282, -0.4058, -0.5, 0.2711, -0.4024, -1.5, 0.2689, -0.4268, -1.5, 0.2282, -0.4058, -0.5, 0.2711, -0.3772, -0.5, 0.3096, -0.4024, -1.5, 0.2689, -0.3772, -0.5, 0.3096, -0.3741, -1.5, 0.307, -0.4024, -1.5, 0.2689, -0.3772, -0.5, 0.3096, -0.3451, -0.5, 0.3451, -0.3741, -1.5, 0.307, -0.3451, -0.5, 0.3451, -0.3422, -1.5, 0.3422, -0.3741, -1.5, 0.307, -0.3451, -0.5, 0.3451, -0.3096, -0.5, 0.3772, -0.3422, -1.5, 0.3422, -0.3096, -0.5, 0.3772, -0.307, -1.5, 0.3741, -0.3422, -1.5, 0.3422, -0.3096, -0.5, 0.3772, -0.2711, -0.5, 0.4058, -0.307, -1.5, 0.3741, -0.2711, -0.5, 0.4058, -0.2689, -1.5, 0.4024, -0.307, -1.5, 0.3741, -0.2711, -0.5, 0.4058, -0.23, -0.5, 0.4304, -0.2689, -1.5, 0.4024, -0.23, -0.5, 0.4304, -0.2282, -1.5, 0.4268, -0.2689, -1.5, 0.4024, -0.23, -0.5, 0.4304, -0.1867, -0.5, 0.4509, -0.2282, -1.5, 0.4268, -0.1867, -0.5, 0.4509, -0.1852, -1.5, 0.4472, -0.2282, -1.5, 0.4268, -0.1867, -0.5, 0.4509, -0.1417, -0.5, 0.467, -0.1852, -1.5, 0.4472, -0.1417, -0.5, 0.467, -0.1405, -1.5, 0.4632, -0.1852, -1.5, 0.4472, -0.1417, -0.5, 0.467, -0.0952, -0.5, 0.4786, -0.1405, -1.5, 0.4632, -0.0952, -0.5, 0.4786, -0.0944, -1.5, 0.4747, -0.1405, -1.5, 0.4632, -0.0952, -0.5, 0.4786, -0.0478, -0.5, 0.4857, -0.0944, -1.5, 0.4747, -0.0478, -0.5, 0.4857, -0.0474, -1.5, 0.4817, -0.0944, -1.5, 0.4747, -0.0478, -0.5, 0.4857, 0, -0.5, 0.488, -0.0474, -1.5, 0.4817, 0, -0.5, 0.488, 0, -1.5, 0.484, -0.0474, -1.5, 0.4817, 0, -1.5, 0.484, 0.0474, -1.5, 0.4817, 0, -2.5, 0.48, 0.0474, -1.5, 0.4817, 0.047, -2.5, 0.4777, 0, -2.5, 0.48, 0.0474, -1.5, 0.4817, 0.0944, -1.5, 0.4747, 0.047, -2.5, 0.4777, 0.0944, -1.5, 0.4747, 0.0936, -2.5, 0.4708, 0.047, -2.5, 0.4777, 0.0944, -1.5, 0.4747, 0.1405, -1.5, 0.4632, 0.0936, -2.5, 0.4708, 0.1405, -1.5, 0.4632, 0.1393, -2.5, 0.4593, 0.0936, -2.5, 0.4708, 0.1405, -1.5, 0.4632, 0.1852, -1.5, 0.4472, 0.1393, -2.5, 0.4593, 0.1852, -1.5, 0.4472, 0.1837, -2.5, 0.4435, 0.1393, -2.5, 0.4593, 0.1852, -1.5, 0.4472, 0.2282, -1.5, 0.4268, 0.1837, -2.5, 0.4435, 0.2282, -1.5, 0.4268, 0.2263, -2.5, 0.4233, 0.1837, -2.5, 0.4435, 0.2282, -1.5, 0.4268, 0.2689, -1.5, 0.4024, 0.2263, -2.5, 0.4233, 0.2689, -1.5, 0.4024, 0.2667, -2.5, 0.3991, 0.2263, -2.5, 0.4233, 0.2689, -1.5, 0.4024, 0.307, -1.5, 0.3741, 0.2667, -2.5, 0.3991, 0.307, -1.5, 0.3741, 0.3045, -2.5, 0.371, 0.2667, -2.5, 0.3991, 0.307, -1.5, 0.3741, 0.3422, -1.5, 0.3422, 0.3045, -2.5, 0.371, 0.3422, -1.5, 0.3422, 0.3394, -2.5, 0.3394, 0.3045, -2.5, 0.371, 0.3422, -1.5, 0.3422, 0.3741, -1.5, 0.307, 0.3394, -2.5, 0.3394, 0.3741, -1.5, 0.307, 0.371, -2.5, 0.3045, 0.3394, -2.5, 0.3394, 0.3741, -1.5, 0.307, 0.4024, -1.5, 0.2689, 0.371, -2.5, 0.3045, 0.4024, -1.5, 0.2689, 0.3991, -2.5, 0.2667, 0.371, -2.5, 0.3045, 0.4024, -1.5, 0.2689, 0.4268, -1.5, 0.2282, 0.3991, -2.5, 0.2667, 0.4268, -1.5, 0.2282, 0.4233, -2.5, 0.2263, 0.3991, -2.5, 0.2667, 0.4268, -1.5, 0.2282, 0.4472, -1.5, 0.1852, 0.4233, -2.5, 0.2263, 0.4472, -1.5, 0.1852, 0.4435, -2.5, 0.1837, 0.4233, -2.5, 0.2263, 0.4472, -1.5, 0.1852, 0.4632, -1.5, 0.1405, 0.4435, -2.5, 0.1837, 0.4632, -1.5, 0.1405, 0.4593, -2.5, 0.1393, 0.4435, -2.5, 0.1837, 0.4632, -1.5, 0.1405, 0.4747, -1.5, 0.0944, 0.4593, -2.5, 0.1393, 0.4747, -1.5, 0.0944, 0.4708, -2.5, 0.0936, 0.4593, -2.5, 0.1393, 0.4747, -1.5, 0.0944, 0.4817, -1.5, 0.0474, 0.4708, -2.5, 0.0936, 0.4817, -1.5, 0.0474, 0.4777, -2.5, 0.047, 0.4708, -2.5, 0.0936, 0.4817, -1.5, 0.0474, 0.484, -1.5, 0, 0.4777, -2.5, 0.047, 0.484, -1.5, 0, 0.48, -2.5, 0, 0.4777, -2.5, 0.047, 0.484, -1.5, 0, 0.4817, -1.5, -0.0474, 0.48, -2.5, 0, 0.4817, -1.5, -0.0474, 0.4777, -2.5, -0.047, 0.48, -2.5, 0, 0.4817, -1.5, -0.0474, 0.4747, -1.5, -0.0944, 0.4777, -2.5, -0.047, 0.4747, -1.5, -0.0944, 0.4708, -2.5, -0.0936, 0.4777, -2.5, -0.047, 0.4747, -1.5, -0.0944, 0.4632, -1.5, -0.1405, 0.4708, -2.5, -0.0936, 0.4632, -1.5, -0.1405, 0.4593, -2.5, -0.1393, 0.4708, -2.5, -0.0936, 0.4632, -1.5, -0.1405, 0.4472, -1.5, -0.1852, 0.4593, -2.5, -0.1393, 0.4472, -1.5, -0.1852, 0.4435, -2.5, -0.1837, 0.4593, -2.5, -0.1393, 0.4472, -1.5, -0.1852, 0.4268, -1.5, -0.2282, 0.4435, -2.5, -0.1837, 0.4268, -1.5, -0.2282, 0.4233, -2.5, -0.2263, 0.4435, -2.5, -0.1837, 0.4268, -1.5, -0.2282, 0.4024, -1.5, -0.2689, 0.4233, -2.5, -0.2263, 0.4024, -1.5, -0.2689, 0.3991, -2.5, -0.2667, 0.4233, -2.5, -0.2263, 0.4024, -1.5, -0.2689, 0.3741, -1.5, -0.307, 0.3991, -2.5, -0.2667, 0.3741, -1.5, -0.307, 0.371, -2.5, -0.3045, 0.3991, -2.5, -0.2667, 0.3741, -1.5, -0.307, 0.3422, -1.5, -0.3422, 0.371, -2.5, -0.3045, 0.3422, -1.5, -0.3422, 0.3394, -2.5, -0.3394, 0.371, -2.5, -0.3045, 0.3422, -1.5, -0.3422, 0.307, -1.5, -0.3741, 0.3394, -2.5, -0.3394, 0.307, -1.5, -0.3741, 0.3045, -2.5, -0.371, 0.3394, -2.5, -0.3394, 0.307, -1.5, -0.3741, 0.2689, -1.5, -0.4024, 0.3045, -2.5, -0.371, 0.2689, -1.5, -0.4024, 0.2667, -2.5, -0.3991, 0.3045, -2.5, -0.371, 0.2689, -1.5, -0.4024, 0.2282, -1.5, -0.4268, 0.2667, -2.5, -0.3991, 0.2282, -1.5, -0.4268, 0.2263, -2.5, -0.4233, 0.2667, -2.5, -0.3991, 0.2282, -1.5, -0.4268, 0.1852, -1.5, -0.4472, 0.2263, -2.5, -0.4233, 0.1852, -1.5, -0.4472, 0.1837, -2.5, -0.4435, 0.2263, -2.5, -0.4233, 0.1852, -1.5, -0.4472, 0.1405, -1.5, -0.4632, 0.1837, -2.5, -0.4435, 0.1405, -1.5, -0.4632, 0.1393, -2.5, -0.4593, 0.1837, -2.5, -0.4435, 0.1405, -1.5, -0.4632, 0.0944, -1.5, -0.4747, 0.1393, -2.5, -0.4593, 0.0944, -1.5, -0.4747, 0.0936, -2.5, -0.4708, 0.1393, -2.5, -0.4593, 0.0944, -1.5, -0.4747, 0.0474, -1.5, -0.4817, 0.0936, -2.5, -0.4708, 0.0474, -1.5, -0.4817, 0.047, -2.5, -0.4777, 0.0936, -2.5, -0.4708, 0.0474, -1.5, -0.4817, 0, -1.5, -0.484, 0.047, -2.5, -0.4777, 0, -1.5, -0.484, 0, -2.5, -0.48, 0.047, -2.5, -0.4777, 0, -1.5, -0.484, -0.0474, -1.5, -0.4817, 0, -2.5, -0.48, -0.0474, -1.5, -0.4817, -0.047, -2.5, -0.4777, 0, -2.5, -0.48, -0.0474, -1.5, -0.4817, -0.0944, -1.5, -0.4747, -0.047, -2.5, -0.4777, -0.0944, -1.5, -0.4747, -0.0936, -2.5, -0.4708, -0.047, -2.5, -0.4777, -0.0944, -1.5, -0.4747, -0.1405, -1.5, -0.4632, -0.0936, -2.5, -0.4708, -0.1405, -1.5, -0.4632, -0.1393, -2.5, -0.4593, -0.0936, -2.5, -0.4708, -0.1405, -1.5, -0.4632, -0.1852, -1.5, -0.4472, -0.1393, -2.5, -0.4593, -0.1852, -1.5, -0.4472, -0.1837, -2.5, -0.4435, -0.1393, -2.5, -0.4593, -0.1852, -1.5, -0.4472, -0.2282, -1.5, -0.4268, -0.1837, -2.5, -0.4435, -0.2282, -1.5, -0.4268, -0.2263, -2.5, -0.4233, -0.1837, -2.5, -0.4435, -0.2282, -1.5, -0.4268, -0.2689, -1.5, -0.4024, -0.2263, -2.5, -0.4233, -0.2689, -1.5, -0.4024, -0.2667, -2.5, -0.3991, -0.2263, -2.5, -0.4233, -0.2689, -1.5, -0.4024, -0.307, -1.5, -0.3741, -0.2667, -2.5, -0.3991, -0.307, -1.5, -0.3741, -0.3045, -2.5, -0.371, -0.2667, -2.5, -0.3991, -0.307, -1.5, -0.3741, -0.3422, -1.5, -0.3422, -0.3045, -2.5, -0.371, -0.3422, -1.5, -0.3422, -0.3394, -2.5, -0.3394, -0.3045, -2.5, -0.371, -0.3422, -1.5, -0.3422, -0.3741, -1.5, -0.307, -0.3394, -2.5, -0.3394, -0.3741, -1.5, -0.307, -0.371, -2.5, -0.3045, -0.3394, -2.5, -0.3394, -0.3741, -1.5, -0.307, -0.4024, -1.5, -0.2689, -0.371, -2.5, -0.3045, -0.4024, -1.5, -0.2689, -0.3991, -2.5, -0.2667, -0.371, -2.5, -0.3045, -0.4024, -1.5, -0.2689, -0.4268, -1.5, -0.2282, -0.3991, -2.5, -0.2667, -0.4268, -1.5, -0.2282, -0.4233, -2.5, -0.2263, -0.3991, -2.5, -0.2667, -0.4268, -1.5, -0.2282, -0.4472, -1.5, -0.1852, -0.4233, -2.5, -0.2263, -0.4472, -1.5, -0.1852, -0.4435, -2.5, -0.1837, -0.4233, -2.5, -0.2263, -0.4472, -1.5, -0.1852, -0.4632, -1.5, -0.1405, -0.4435, -2.5, -0.1837, -0.4632, -1.5, -0.1405, -0.4593, -2.5, -0.1393, -0.4435, -2.5, -0.1837, -0.4632, -1.5, -0.1405, -0.4747, -1.5, -0.0944, -0.4593, -2.5, -0.1393, -0.4747, -1.5, -0.0944, -0.4708, -2.5, -0.0936, -0.4593, -2.5, -0.1393, -0.4747, -1.5, -0.0944, -0.4817, -1.5, -0.0474, -0.4708, -2.5, -0.0936, -0.4817, -1.5, -0.0474, -0.4777, -2.5, -0.047, -0.4708, -2.5, -0.0936, -0.4817, -1.5, -0.0474, -0.484, -1.5, 0, -0.4777, -2.5, -0.047, -0.484, -1.5, 0, -0.48, -2.5, 0, -0.4777, -2.5, -0.047, -0.484, -1.5, 0, -0.4817, -1.5, 0.0474, -0.48, -2.5, 0, -0.4817, -1.5, 0.0474, -0.4777, -2.5, 0.047, -0.48, -2.5, 0, -0.4817, -1.5, 0.0474, -0.4747, -1.5, 0.0944, -0.4777, -2.5, 0.047, -0.4747, -1.5, 0.0944, -0.4708, -2.5, 0.0936, -0.4777, -2.5, 0.047, -0.4747, -1.5, 0.0944, -0.4632, -1.5, 0.1405, -0.4708, -2.5, 0.0936, -0.4632, -1.5, 0.1405, -0.4593, -2.5, 0.1393, -0.4708, -2.5, 0.0936, -0.4632, -1.5, 0.1405, -0.4472, -1.5, 0.1852, -0.4593, -2.5, 0.1393, -0.4472, -1.5, 0.1852, -0.4435, -2.5, 0.1837, -0.4593, -2.5, 0.1393, -0.4472, -1.5, 0.1852, -0.4268, -1.5, 0.2282, -0.4435, -2.5, 0.1837, -0.4268, -1.5, 0.2282, -0.4233, -2.5, 0.2263, -0.4435, -2.5, 0.1837, -0.4268, -1.5, 0.2282, -0.4024, -1.5, 0.2689, -0.4233, -2.5, 0.2263, -0.4024, -1.5, 0.2689, -0.3991, -2.5, 0.2667, -0.4233, -2.5, 0.2263, -0.4024, -1.5, 0.2689, -0.3741, -1.5, 0.307, -0.3991, -2.5, 0.2667, -0.3741, -1.5, 0.307, -0.371, -2.5, 0.3045, -0.3991, -2.5, 0.2667, -0.3741, -1.5, 0.307, -0.3422, -1.5, 0.3422, -0.371, -2.5, 0.3045, -0.3422, -1.5, 0.3422, -0.3394, -2.5, 0.3394, -0.371, -2.5, 0.3045, -0.3422, -1.5, 0.3422, -0.307, -1.5, 0.3741, -0.3394, -2.5, 0.3394, -0.307, -1.5, 0.3741, -0.3045, -2.5, 0.371, -0.3394, -2.5, 0.3394, -0.307, -1.5, 0.3741, -0.2689, -1.5, 0.4024, -0.3045, -2.5, 0.371, -0.2689, -1.5, 0.4024, -0.2667, -2.5, 0.3991, -0.3045, -2.5, 0.371, -0.2689, -1.5, 0.4024, -0.2282, -1.5, 0.4268, -0.2667, -2.5, 0.3991, -0.2282, -1.5, 0.4268, -0.2263, -2.5, 0.4233, -0.2667, -2.5, 0.3991, -0.2282, -1.5, 0.4268, -0.1852, -1.5, 0.4472, -0.2263, -2.5, 0.4233, -0.1852, -1.5, 0.4472, -0.1837, -2.5, 0.4435, -0.2263, -2.5, 0.4233, -0.1852, -1.5, 0.4472, -0.1405, -1.5, 0.4632, -0.1837, -2.5, 0.4435, -0.1405, -1.5, 0.4632, -0.1393, -2.5, 0.4593, -0.1837, -2.5, 0.4435, -0.1405, -1.5, 0.4632, -0.0944, -1.5, 0.4747, -0.1393, -2.5, 0.4593, -0.0944, -1.5, 0.4747, -0.0936, -2.5, 0.4708, -0.1393, -2.5, 0.4593, -0.0944, -1.5, 0.4747, -0.0474, -1.5, 0.4817, -0.0936, -2.5, 0.4708, -0.0474, -1.5, 0.4817, -0.047, -2.5, 0.4777, -0.0936, -2.5, 0.4708, -0.0474, -1.5, 0.4817, 0, -1.5, 0.484, -0.047, -2.5, 0.4777, 0, -1.5, 0.484, 0, -2.5, 0.48, -0.047, -2.5, 0.4777, 0, 2.5, 0, 0.049, 2.5, 0.4976, 0, 2.5, 0.5, 0, 2.5, 0, 0.0975, 2.5, 0.4904, 0.049, 2.5, 0.4976, 0, 2.5, 0, 0.1451, 2.5, 0.4785, 0.0975, 2.5, 0.4904, 0, 2.5, 0, 0.1913, 2.5, 0.4619, 0.1451, 2.5, 0.4785, 0, 2.5, 0, 0.2357, 2.5, 0.441, 0.1913, 2.5, 0.4619, 0, 2.5, 0, 0.2778, 2.5, 0.4157, 0.2357, 2.5, 0.441, 0, 2.5, 0, 0.3172, 2.5, 0.3865, 0.2778, 2.5, 0.4157, 0, 2.5, 0, 0.3536, 2.5, 0.3536, 0.3172, 2.5, 0.3865, 0, 2.5, 0, 0.3865, 2.5, 0.3172, 0.3536, 2.5, 0.3536, 0, 2.5, 0, 0.4157, 2.5, 0.2778, 0.3865, 2.5, 0.3172, 0, 2.5, 0, 0.441, 2.5, 0.2357, 0.4157, 2.5, 0.2778, 0, 2.5, 0, 0.4619, 2.5, 0.1913, 0.441, 2.5, 0.2357, 0, 2.5, 0, 0.4785, 2.5, 0.1451, 0.4619, 2.5, 0.1913, 0, 2.5, 0, 0.4904, 2.5, 0.0975, 0.4785, 2.5, 0.1451, 0, 2.5, 0, 0.4976, 2.5, 0.049, 0.4904, 2.5, 0.0975, 0, 2.5, 0, 0.5, 2.5, 0, 0.4976, 2.5, 0.049, 0, 2.5, 0, 0.4976, 2.5, -0.049, 0.5, 2.5, 0, 0, 2.5, 0, 0.4904, 2.5, -0.0975, 0.4976, 2.5, -0.049, 0, 2.5, 0, 0.4785, 2.5, -0.1451, 0.4904, 2.5, -0.0975, 0, 2.5, 0, 0.4619, 2.5, -0.1913, 0.4785, 2.5, -0.1451, 0, 2.5, 0, 0.441, 2.5, -0.2357, 0.4619, 2.5, -0.1913, 0, 2.5, 0, 0.4157, 2.5, -0.2778, 0.441, 2.5, -0.2357, 0, 2.5, 0, 0.3865, 2.5, -0.3172, 0.4157, 2.5, -0.2778, 0, 2.5, 0, 0.3536, 2.5, -0.3536, 0.3865, 2.5, -0.3172, 0, 2.5, 0, 0.3172, 2.5, -0.3865, 0.3536, 2.5, -0.3536, 0, 2.5, 0, 0.2778, 2.5, -0.4157, 0.3172, 2.5, -0.3865, 0, 2.5, 0, 0.2357, 2.5, -0.441, 0.2778, 2.5, -0.4157, 0, 2.5, 0, 0.1913, 2.5, -0.4619, 0.2357, 2.5, -0.441, 0, 2.5, 0, 0.1451, 2.5, -0.4785, 0.1913, 2.5, -0.4619, 0, 2.5, 0, 0.0975, 2.5, -0.4904, 0.1451, 2.5, -0.4785, 0, 2.5, 0, 0.049, 2.5, -0.4976, 0.0975, 2.5, -0.4904, 0, 2.5, 0, 0, 2.5, -0.5, 0.049, 2.5, -0.4976, 0, 2.5, 0, -0.049, 2.5, -0.4976, 0, 2.5, -0.5, 0, 2.5, 0, -0.0975, 2.5, -0.4904, -0.049, 2.5, -0.4976, 0, 2.5, 0, -0.1451, 2.5, -0.4785, -0.0975, 2.5, -0.4904, 0, 2.5, 0, -0.1913, 2.5, -0.4619, -0.1451, 2.5, -0.4785, 0, 2.5, 0, -0.2357, 2.5, -0.441, -0.1913, 2.5, -0.4619, 0, 2.5, 0, -0.2778, 2.5, -0.4157, -0.2357, 2.5, -0.441, 0, 2.5, 0, -0.3172, 2.5, -0.3865, -0.2778, 2.5, -0.4157, 0, 2.5, 0, -0.3536, 2.5, -0.3536, -0.3172, 2.5, -0.3865, 0, 2.5, 0, -0.3865, 2.5, -0.3172, -0.3536, 2.5, -0.3536, 0, 2.5, 0, -0.4157, 2.5, -0.2778, -0.3865, 2.5, -0.3172, 0, 2.5, 0, -0.441, 2.5, -0.2357, -0.4157, 2.5, -0.2778, 0, 2.5, 0, -0.4619, 2.5, -0.1913, -0.441, 2.5, -0.2357, 0, 2.5, 0, -0.4785, 2.5, -0.1451, -0.4619, 2.5, -0.1913, 0, 2.5, 0, -0.4904, 2.5, -0.0975, -0.4785, 2.5, -0.1451, 0, 2.5, 0, -0.4976, 2.5, -0.049, -0.4904, 2.5, -0.0975, 0, 2.5, 0, -0.5, 2.5, 0, -0.4976, 2.5, -0.049, 0, 2.5, 0, -0.4976, 2.5, 0.049, -0.5, 2.5, 0, 0, 2.5, 0, -0.4904, 2.5, 0.0975, -0.4976, 2.5, 0.049, 0, 2.5, 0, -0.4785, 2.5, 0.1451, -0.4904, 2.5, 0.0975, 0, 2.5, 0, -0.4619, 2.5, 0.1913, -0.4785, 2.5, 0.1451, 0, 2.5, 0, -0.441, 2.5, 0.2357, -0.4619, 2.5, 0.1913, 0, 2.5, 0, -0.4157, 2.5, 0.2778, -0.441, 2.5, 0.2357, 0, 2.5, 0, -0.3865, 2.5, 0.3172, -0.4157, 2.5, 0.2778, 0, 2.5, 0, -0.3536, 2.5, 0.3536, -0.3865, 2.5, 0.3172, 0, 2.5, 0, -0.3172, 2.5, 0.3865, -0.3536, 2.5, 0.3536, 0, 2.5, 0, -0.2778, 2.5, 0.4157, -0.3172, 2.5, 0.3865, 0, 2.5, 0, -0.2357, 2.5, 0.441, -0.2778, 2.5, 0.4157, 0, 2.5, 0, -0.1913, 2.5, 0.4619, -0.2357, 2.5, 0.441, 0, 2.5, 0, -0.1451, 2.5, 0.4785, -0.1913, 2.5, 0.4619, 0, 2.5, 0, -0.0975, 2.5, 0.4904, -0.1451, 2.5, 0.4785, 0, 2.5, 0, -0.049, 2.5, 0.4976, -0.0975, 2.5, 0.4904, 0, 2.5, 0, 0, 2.5, 0.5, -0.049, 2.5, 0.4976, 0, -2.5, 0, 0, -2.5, 0.48, 0.047, -2.5, 0.4777, 0, -2.5, 0, 0.047, -2.5, 0.4777, 0.0936, -2.5, 0.4708, 0, -2.5, 0, 0.0936, -2.5, 0.4708, 0.1393, -2.5, 0.4593, 0, -2.5, 0, 0.1393, -2.5, 0.4593, 0.1837, -2.5, 0.4435, 0, -2.5, 0, 0.1837, -2.5, 0.4435, 0.2263, -2.5, 0.4233, 0, -2.5, 0, 0.2263, -2.5, 0.4233, 0.2667, -2.5, 0.3991, 0, -2.5, 0, 0.2667, -2.5, 0.3991, 0.3045, -2.5, 0.371, 0, -2.5, 0, 0.3045, -2.5, 0.371, 0.3394, -2.5, 0.3394, 0, -2.5, 0, 0.3394, -2.5, 0.3394, 0.371, -2.5, 0.3045, 0, -2.5, 0, 0.371, -2.5, 0.3045, 0.3991, -2.5, 0.2667, 0, -2.5, 0, 0.3991, -2.5, 0.2667, 0.4233, -2.5, 0.2263, 0, -2.5, 0, 0.4233, -2.5, 0.2263, 0.4435, -2.5, 0.1837, 0, -2.5, 0, 0.4435, -2.5, 0.1837, 0.4593, -2.5, 0.1393, 0, -2.5, 0, 0.4593, -2.5, 0.1393, 0.4708, -2.5, 0.0936, 0, -2.5, 0, 0.4708, -2.5, 0.0936, 0.4777, -2.5, 0.047, 0, -2.5, 0, 0.4777, -2.5, 0.047, 0.48, -2.5, 0, 0, -2.5, 0, 0.48, -2.5, 0, 0.4777, -2.5, -0.047, 0, -2.5, 0, 0.4777, -2.5, -0.047, 0.4708, -2.5, -0.0936, 0, -2.5, 0, 0.4708, -2.5, -0.0936, 0.4593, -2.5, -0.1393, 0, -2.5, 0, 0.4593, -2.5, -0.1393, 0.4435, -2.5, -0.1837, 0, -2.5, 0, 0.4435, -2.5, -0.1837, 0.4233, -2.5, -0.2263, 0, -2.5, 0, 0.4233, -2.5, -0.2263, 0.3991, -2.5, -0.2667, 0, -2.5, 0, 0.3991, -2.5, -0.2667, 0.371, -2.5, -0.3045, 0, -2.5, 0, 0.371, -2.5, -0.3045, 0.3394, -2.5, -0.3394, 0, -2.5, 0, 0.3394, -2.5, -0.3394, 0.3045, -2.5, -0.371, 0, -2.5, 0, 0.3045, -2.5, -0.371, 0.2667, -2.5, -0.3991, 0, -2.5, 0, 0.2667, -2.5, -0.3991, 0.2263, -2.5, -0.4233, 0, -2.5, 0, 0.2263, -2.5, -0.4233, 0.1837, -2.5, -0.4435, 0, -2.5, 0, 0.1837, -2.5, -0.4435, 0.1393, -2.5, -0.4593, 0, -2.5, 0, 0.1393, -2.5, -0.4593, 0.0936, -2.5, -0.4708, 0, -2.5, 0, 0.0936, -2.5, -0.4708, 0.047, -2.5, -0.4777, 0, -2.5, 0, 0.047, -2.5, -0.4777, 0, -2.5, -0.48, 0, -2.5, 0, 0, -2.5, -0.48, -0.047, -2.5, -0.4777, 0, -2.5, 0, -0.047, -2.5, -0.4777, -0.0936, -2.5, -0.4708, 0, -2.5, 0, -0.0936, -2.5, -0.4708, -0.1393, -2.5, -0.4593, 0, -2.5, 0, -0.1393, -2.5, -0.4593, -0.1837, -2.5, -0.4435, 0, -2.5, 0, -0.1837, -2.5, -0.4435, -0.2263, -2.5, -0.4233, 0, -2.5, 0, -0.2263, -2.5, -0.4233, -0.2667, -2.5, -0.3991, 0, -2.5, 0, -0.2667, -2.5, -0.3991, -0.3045, -2.5, -0.371, 0, -2.5, 0, -0.3045, -2.5, -0.371, -0.3394, -2.5, -0.3394, 0, -2.5, 0, -0.3394, -2.5, -0.3394, -0.371, -2.5, -0.3045, 0, -2.5, 0, -0.371, -2.5, -0.3045, -0.3991, -2.5, -0.2667, 0, -2.5, 0, -0.3991, -2.5, -0.2667, -0.4233, -2.5, -0.2263, 0, -2.5, 0, -0.4233, -2.5, -0.2263, -0.4435, -2.5, -0.1837, 0, -2.5, 0, -0.4435, -2.5, -0.1837, -0.4593, -2.5, -0.1393, 0, -2.5, 0, -0.4593, -2.5, -0.1393, -0.4708, -2.5, -0.0936, 0, -2.5, 0, -0.4708, -2.5, -0.0936, -0.4777, -2.5, -0.047, 0, -2.5, 0, -0.4777, -2.5, -0.047, -0.48, -2.5, 0, 0, -2.5, 0, -0.48, -2.5, 0, -0.4777, -2.5, 0.047, 0, -2.5, 0, -0.4777, -2.5, 0.047, -0.4708, -2.5, 0.0936, 0, -2.5, 0, -0.4708, -2.5, 0.0936, -0.4593, -2.5, 0.1393, 0, -2.5, 0, -0.4593, -2.5, 0.1393, -0.4435, -2.5, 0.1837, 0, -2.5, 0, -0.4435, -2.5, 0.1837, -0.4233, -2.5, 0.2263, 0, -2.5, 0, -0.4233, -2.5, 0.2263, -0.3991, -2.5, 0.2667, 0, -2.5, 0, -0.3991, -2.5, 0.2667, -0.371, -2.5, 0.3045, 0, -2.5, 0, -0.371, -2.5, 0.3045, -0.3394, -2.5, 0.3394, 0, -2.5, 0, -0.3394, -2.5, 0.3394, -0.3045, -2.5, 0.371, 0, -2.5, 0, -0.3045, -2.5, 0.371, -0.2667, -2.5, 0.3991, 0, -2.5, 0, -0.2667, -2.5, 0.3991, -0.2263, -2.5, 0.4233, 0, -2.5, 0, -0.2263, -2.5, 0.4233, -0.1837, -2.5, 0.4435, 0, -2.5, 0, -0.1837, -2.5, 0.4435, -0.1393, -2.5, 0.4593, 0, -2.5, 0, -0.1393, -2.5, 0.4593, -0.0936, -2.5, 0.4708, 0, -2.5, 0, -0.0936, -2.5, 0.4708, -0.047, -2.5, 0.4777, 0, -2.5, 0, -0.047, -2.5, 0.4777, 0, -2.5, 0.48)

[sub_resource type="SphereShape3D" id="SphereShape3D_ksl3j"]
radius = 13.1173

[sub_resource type="StandardMaterial3D" id="StandardMaterial3D_2fp4u"]

[node name="main" type="Node"]

[node name="WorldEnvironment" type="WorldEnvironment" parent="."]
environment = SubResource("Environment_piapr")

[node name="DirectionalLight3D" type="DirectionalLight3D" parent="WorldEnvironment"]
transform = Transform3D(1, 0, 0, 0, 0.807218, 0.590254, 0, -0.590254, 0.807218, 0, 0, 0)
shadow_enabled = true

[node name="floor" type="StaticBody3D" parent="."]

[node name="MeshInstance2D" type="MeshInstance3D" parent="floor"]
transform = Transform3D(1, 0, 0, 0, 1, 0, 0, 0, 1, 0, -0.698066, 0)
mesh = SubResource("BoxMesh_asvn0")
skeleton = NodePath("../..")

[node name="CollisionShape3D" type="CollisionShape3D" parent="floor"]
shape = SubResource("ConcavePolygonShape3D_a5o78")

[node name="Camera3D" type="Camera3D" parent="."]
transform = Transform3D(1, 0, 0, 0, 1, 0, 0, 0, 1, 0, 15.1681, 19.9793)

[node name="pole" type="StaticBody3D" parent="."]
transform = Transform3D(-4.37114e-08, 1, 0, -1, -4.37114e-08, 0, 0, 0, 1, 0, 13.9227, 0)

[node name="flag" type="SoftBody3D" parent="pole"]
transform = Transform3D(1, 0, 0, 0, 1, 0, 0, 0, 1, 3.2043, 1.40064e-07, 0)
mesh = SubResource("QuadMesh_wglk5")
skeleton = NodePath("../..")
pinned_points = [48, 6]
attachments/0/point_index = 48
attachments/0/spatial_attachment_path = NodePath("..")
attachments/0/offset = Vector3(0.7043, 2.5, 0)
attachments/1/point_index = 6
attachments/1/spatial_attachment_path = NodePath("..")
attachments/1/offset = Vector3(0.7043, -2.5, 0)

[node name="MeshInstance3D" type="MeshInstance3D" parent="pole"]
mesh = SubResource("CylinderMesh_3ipwx")
skeleton = NodePath("../..")

[node name="CollisionShape3D" type="CollisionShape3D" parent="pole"]
shape = SubResource("ConcavePolygonShape3D_g066w")

[node name="pole2" type="StaticBody3D" parent="."]
transform = Transform3D(-3.11675e-08, 0.71303, 0.701133, -1, -4.37114e-08, 2.98866e-17, 3.06475e-08, -0.701133, 0.71303, 0, 13.9227, 5.68759)

[node name="flag" type="SoftBody3D" parent="pole2"]
transform = Transform3D(1, 0, 0, 0, 1, 0, 0, 0, 1, 3.2043, 1.40064e-07, 0)
mesh = SubResource("QuadMesh_wglk5")
skeleton = NodePath("../..")
pinned_points = [48, 6]
attachments/0/point_index = 48
attachments/0/spatial_attachment_path = NodePath("..")
attachments/0/offset = Vector3(0.7043, 2.5, -1.49012e-07)
attachments/1/point_index = 6
attachments/1/spatial_attachment_path = NodePath("..")
attachments/1/offset = Vector3(0.7043, -2.5, 1.49012e-07)

[node name="MeshInstance3D" type="MeshInstance3D" parent="pole2"]
mesh = SubResource("CylinderMesh_3ipwx")
skeleton = NodePath("../..")

[node name="CollisionShape3D" type="CollisionShape3D" parent="pole2"]
shape = SubResource("ConcavePolygonShape3D_g066w")

[node name="wind" type="Area3D" parent="."]
transform = Transform3D(1, 0, 0, 0, 1, 0, 0, 0, 1, 0, 10.8378, -0.877671)
wind_force_magnitude = 10.0
wind_source_path = NodePath("../Arrow3D")

[node name="CollisionShape3D" type="CollisionShape3D" parent="wind"]
transform = Transform3D(1, 0, 0, 0, 1, 0, 0, 0, 1, 0, 0, 1.65614)
shape = SubResource("SphereShape3D_ksl3j")

[node name="Arrow3D" type="Marker3D" parent="."]
transform = Transform3D(1, 0, 0, 0, 1, 0, 0, 0, 1, 0, 12.2079, -14)
gizmo_extents = 0.0
script = ExtResource("1_3hpqq")
arrow_size = 10.0
arrow_thickness = 0.5
arrow_material = SubResource("StandardMaterial3D_2fp4u")
