[gd_scene load_steps=7 format=3 uid="uid://djnk4qcc0h882"]

[ext_resource type="Script" path="res://fish_world/petal_fish.gd" id="1_6qu0s"]
[ext_resource type="Shape3D" uid="uid://cebi4spu815vi" path="res://assets/fishy_sensor_shape.tres" id="2_y3rvw"]
[ext_resource type="PackedScene" uid="uid://drrrax6ak3klw" path="res://assets/petalfish.tscn" id="3_6pn8p"]

[sub_resource type="PhysicsMaterial" id="PhysicsMaterial_ub7eu"]
friction = 0.0

[sub_resource type="CylinderShape3D" id="CylinderShape3D_yceap"]
height = 0.144547
radius = 0.251774

[sub_resource type="BoxMesh" id="BoxMesh_m1f8g"]
size = Vector3(0.2, 0.2, 0.5)

[node name="petal_fish" type="RigidBody3D"]
transform = Transform3D(1, 0, 0, 0, 1, 0, 0, 0, 1, 0, 0, 0.0105316)
collision_layer = 2
collision_mask = 3
mass = 0.2
physics_material_override = SubResource("PhysicsMaterial_ub7eu")
gravity_scale = 0.0
center_of_mass_mode = 1
linear_damp_mode = 1
angular_damp_mode = 1
script = ExtResource("1_6qu0s")

[node name="coll" type="CollisionShape3D" parent="."]
transform = Transform3D(-4.37114e-08, -1, -4.37114e-08, 0, -4.37114e-08, 1, -1, 4.37114e-08, 1.91069e-15, 0, 0, -0.123799)
shape = SubResource("CylinderShape3D_yceap")

[node name="aim" type="Marker3D" parent="."]
unique_name_in_owner = true
transform = Transform3D(1, 0, 0, 0, 1, 0, 0, 0, 1, 0, 0, -0.144622)
visible = false
gizmo_extents = 0.01

[node name="com" type="Marker3D" parent="."]
unique_name_in_owner = true
transform = Transform3D(1, 0, 0, 0, 1, 0, 0, 0, 1, 0, 0, -0.209565)
gizmo_extents = 0.1

[node name="eyes" type="CollisionShape3D" parent="."]
unique_name_in_owner = true
transform = Transform3D(-4.37114e-08, -1, 0, 1, -4.37114e-08, 0, 0, 0, 1, 0, 0, 0.00906207)
shape = ExtResource("2_y3rvw")
disabled = true

[node name="t" type="Label3D" parent="."]
unique_name_in_owner = true
transform = Transform3D(1, 0, 0, 0, 1, 0, 0, 0, 1, 0, -0.108105, 0.143204)
visible = false
billboard = 1
fixed_size = true
texture_filter = 0
text = "DEBUG
DEBUG
DEBUG"
font_size = 9
outline_size = 0
horizontal_alignment = 0
vertical_alignment = 0

[node name="petalfish" parent="." instance=ExtResource("3_6pn8p")]
transform = Transform3D(0.245, 0, 0, 0, 0.245, 0, 0, 0, 0.245, 0, 0, -0.0503592)

[node name="ruler" type="MeshInstance3D" parent="."]
transform = Transform3D(1, 0, 0, 0, 1, 0, 0, 0, 1, 0, 0, -0.0989733)
visible = false
mesh = SubResource("BoxMesh_m1f8g")

[node name="ruler2" type="MeshInstance3D" parent="."]
transform = Transform3D(1, 0, 0, 0, 1, 0, 0, 0, 1, 0, 0, 0.334035)
visible = false
mesh = SubResource("BoxMesh_m1f8g")
