[gd_resource type="Resource" script_class="AvoidHarmPlan" load_steps=2 format=3 uid="uid://b6lp0mn0ltisy"]

[ext_resource type="Script" path="res://fish_world/fish_ai/plans/classes/avoid_harm_plan.gd" id="1_6picx"]

[resource]
script = ExtResource("1_6picx")
