[gd_resource type="Resource" script_class="StaySecurePlan" load_steps=2 format=3 uid="uid://seeu7muwmgib"]

[ext_resource type="Script" path="res://fish_world/fish_ai/plans/classes/stay_secure_plan.gd" id="1_00bvw"]

[resource]
script = ExtResource("1_00bvw")
